solid OpenSCAD_Model
  facet normal -1 0 0
    outer loop
      vertex 88 -53 -1.3
      vertex 88 -2 0
      vertex 88 -2 -1.3
    endloop
  endfacet
  facet normal -1 -0 0
    outer loop
      vertex 88 -2 0
      vertex 88 -53 -1.3
      vertex 88 -53 0
    endloop
  endfacet
  facet normal -0 0 1
    outer loop
      vertex 6.96722 -48.1881 -1.3
      vertex 8.5 -53 -1.3
      vertex 6.96722 -6.81187 -1.3
    endloop
  endfacet
  facet normal 0 0 1
    outer loop
      vertex 8.5 -53 -1.3
      vertex 6.96722 -48.1881 -1.3
      vertex 7 -48.5 -1.3
    endloop
  endfacet
  facet normal -0 0 1
    outer loop
      vertex 6.87032 -7.1101 -1.3
      vertex 6.96722 -48.1881 -1.3
      vertex 6.96722 -6.81187 -1.3
    endloop
  endfacet
  facet normal 0 0 1
    outer loop
      vertex 6.87032 -7.1101 -1.3
      vertex 6.87032 -47.8899 -1.3
      vertex 6.96722 -48.1881 -1.3
    endloop
  endfacet
  facet normal -0 0 1
    outer loop
      vertex 6.71352 -7.38168 -1.3
      vertex 6.87032 -47.8899 -1.3
      vertex 6.87032 -7.1101 -1.3
    endloop
  endfacet
  facet normal 0 0 1
    outer loop
      vertex 6.71352 -7.38168 -1.3
      vertex 6.71352 -47.6183 -1.3
      vertex 6.87032 -47.8899 -1.3
    endloop
  endfacet
  facet normal -0 0 1
    outer loop
      vertex 6.5037 -7.61472 -1.3
      vertex 6.71352 -47.6183 -1.3
      vertex 6.71352 -7.38168 -1.3
    endloop
  endfacet
  facet normal 0 0 1
    outer loop
      vertex 6.5037 -7.61472 -1.3
      vertex 6.5037 -47.3853 -1.3
      vertex 6.71352 -47.6183 -1.3
    endloop
  endfacet
  facet normal -0 0 1
    outer loop
      vertex 6.25 -7.79904 -1.3
      vertex 6.5037 -47.3853 -1.3
      vertex 6.5037 -7.61472 -1.3
    endloop
  endfacet
  facet normal 0 0 1
    outer loop
      vertex 6.25 -7.79904 -1.3
      vertex 6.25 -47.201 -1.3
      vertex 6.5037 -47.3853 -1.3
    endloop
  endfacet
  facet normal -0 0 1
    outer loop
      vertex 5.96352 -7.92658 -1.3
      vertex 6.25 -47.201 -1.3
      vertex 6.25 -7.79904 -1.3
    endloop
  endfacet
  facet normal 0 0 1
    outer loop
      vertex 5.96352 -7.92658 -1.3
      vertex 5.96352 -47.0734 -1.3
      vertex 6.25 -47.201 -1.3
    endloop
  endfacet
  facet normal -0 0 1
    outer loop
      vertex 5.65679 -7.99178 -1.3
      vertex 5.96352 -47.0734 -1.3
      vertex 5.96352 -7.92658 -1.3
    endloop
  endfacet
  facet normal 0 0 1
    outer loop
      vertex 5.65679 -7.99178 -1.3
      vertex 5.65679 -47.0082 -1.3
      vertex 5.96352 -47.0734 -1.3
    endloop
  endfacet
  facet normal -0 0 1
    outer loop
      vertex 5.34321 -7.99178 -1.3
      vertex 5.65679 -47.0082 -1.3
      vertex 5.65679 -7.99178 -1.3
    endloop
  endfacet
  facet normal 0 0 1
    outer loop
      vertex 5.34321 -7.99178 -1.3
      vertex 5.34321 -47.0082 -1.3
      vertex 5.65679 -47.0082 -1.3
    endloop
  endfacet
  facet normal 0 0 1
    outer loop
      vertex 5.03647 -7.92658 -1.3
      vertex 5.34321 -47.0082 -1.3
      vertex 5.34321 -7.99178 -1.3
    endloop
  endfacet
  facet normal 0 0 1
    outer loop
      vertex 5.03647 -7.92658 -1.3
      vertex 5.03647 -47.0734 -1.3
      vertex 5.34321 -47.0082 -1.3
    endloop
  endfacet
  facet normal 0 0 1
    outer loop
      vertex 4.75 -7.79904 -1.3
      vertex 5.03647 -47.0734 -1.3
      vertex 5.03647 -7.92658 -1.3
    endloop
  endfacet
  facet normal 0 0 1
    outer loop
      vertex 4.75 -7.79904 -1.3
      vertex 4.75 -47.201 -1.3
      vertex 5.03647 -47.0734 -1.3
    endloop
  endfacet
  facet normal 0 0 1
    outer loop
      vertex 4.4963 -7.61472 -1.3
      vertex 4.75 -47.201 -1.3
      vertex 4.75 -7.79904 -1.3
    endloop
  endfacet
  facet normal 0 0 1
    outer loop
      vertex 4.4963 -7.61472 -1.3
      vertex 4.4963 -47.3853 -1.3
      vertex 4.75 -47.201 -1.3
    endloop
  endfacet
  facet normal 0 0 1
    outer loop
      vertex 4.28647 -7.38168 -1.3
      vertex 4.4963 -47.3853 -1.3
      vertex 4.4963 -7.61472 -1.3
    endloop
  endfacet
  facet normal 0 0 1
    outer loop
      vertex 4.28647 -7.38168 -1.3
      vertex 4.28647 -47.6183 -1.3
      vertex 4.4963 -47.3853 -1.3
    endloop
  endfacet
  facet normal 0 0 1
    outer loop
      vertex 4.12968 -7.1101 -1.3
      vertex 4.28647 -47.6183 -1.3
      vertex 4.28647 -7.38168 -1.3
    endloop
  endfacet
  facet normal 0 0 1
    outer loop
      vertex 4.12968 -7.1101 -1.3
      vertex 4.12968 -47.8899 -1.3
      vertex 4.28647 -47.6183 -1.3
    endloop
  endfacet
  facet normal 0 0 1
    outer loop
      vertex 1 -2 -1.3
      vertex 4.12968 -7.1101 -1.3
      vertex 4.03278 -6.81187 -1.3
    endloop
  endfacet
  facet normal 0 0 1
    outer loop
      vertex 4.12968 -7.1101 -1.3
      vertex 1 -2 -1.3
      vertex 4.12968 -47.8899 -1.3
    endloop
  endfacet
  facet normal 0 0 1
    outer loop
      vertex 1 -2 -1.3
      vertex 4.03278 -6.81187 -1.3
      vertex 4 -6.5 -1.3
    endloop
  endfacet
  facet normal 0 0 1
    outer loop
      vertex 1 -53 -1.3
      vertex 4.12968 -47.8899 -1.3
      vertex 1 -2 -1.3
    endloop
  endfacet
  facet normal 0 0 1
    outer loop
      vertex 6.96722 -6.81187 -1.3
      vertex 8.5 -2 -1.3
      vertex 7 -6.5 -1.3
    endloop
  endfacet
  facet normal 0 0 1
    outer loop
      vertex 8.5 -2 -1.3
      vertex 6.96722 -6.18813 -1.3
      vertex 7 -6.5 -1.3
    endloop
  endfacet
  facet normal 0 0 1
    outer loop
      vertex 8.5 -2 -1.3
      vertex 6.87032 -5.88989 -1.3
      vertex 6.96722 -6.18813 -1.3
    endloop
  endfacet
  facet normal 0 0 1
    outer loop
      vertex 8.5 -2 -1.3
      vertex 6.71352 -5.61832 -1.3
      vertex 6.87032 -5.88989 -1.3
    endloop
  endfacet
  facet normal 0 0 1
    outer loop
      vertex 8.5 -2 -1.3
      vertex 6.5037 -5.38528 -1.3
      vertex 6.71352 -5.61832 -1.3
    endloop
  endfacet
  facet normal 0 0 1
    outer loop
      vertex 8.5 -2 -1.3
      vertex 6.25 -5.20096 -1.3
      vertex 6.5037 -5.38528 -1.3
    endloop
  endfacet
  facet normal 0 0 1
    outer loop
      vertex 8.5 -2 -1.3
      vertex 5.96352 -5.07341 -1.3
      vertex 6.25 -5.20096 -1.3
    endloop
  endfacet
  facet normal 0 0 1
    outer loop
      vertex 8.5 -2 -1.3
      vertex 5.65679 -5.00822 -1.3
      vertex 5.96352 -5.07341 -1.3
    endloop
  endfacet
  facet normal 0 0 1
    outer loop
      vertex 8.5 -2 -1.3
      vertex 5.34321 -5.00822 -1.3
      vertex 5.65679 -5.00822 -1.3
    endloop
  endfacet
  facet normal -0 0 1
    outer loop
      vertex 1 -2 -1.3
      vertex 5.34321 -5.00822 -1.3
      vertex 8.5 -2 -1.3
    endloop
  endfacet
  facet normal 0 0 1
    outer loop
      vertex 5.34321 -5.00822 -1.3
      vertex 1 -2 -1.3
      vertex 5.03647 -5.07341 -1.3
    endloop
  endfacet
  facet normal 0 0 1
    outer loop
      vertex 5.03647 -5.07341 -1.3
      vertex 1 -2 -1.3
      vertex 4.75 -5.20096 -1.3
    endloop
  endfacet
  facet normal 0 0 1
    outer loop
      vertex 4.12968 -47.8899 -1.3
      vertex 1 -53 -1.3
      vertex 4.03278 -48.1881 -1.3
    endloop
  endfacet
  facet normal 0 0 1
    outer loop
      vertex 4.03278 -6.18813 -1.3
      vertex 1 -2 -1.3
      vertex 4 -6.5 -1.3
    endloop
  endfacet
  facet normal 0 0 1
    outer loop
      vertex 4.12968 -5.88989 -1.3
      vertex 1 -2 -1.3
      vertex 4.03278 -6.18813 -1.3
    endloop
  endfacet
  facet normal 0 0 1
    outer loop
      vertex 4.28647 -5.61832 -1.3
      vertex 1 -2 -1.3
      vertex 4.12968 -5.88989 -1.3
    endloop
  endfacet
  facet normal 0 0 1
    outer loop
      vertex 4.4963 -5.38528 -1.3
      vertex 1 -2 -1.3
      vertex 4.28647 -5.61832 -1.3
    endloop
  endfacet
  facet normal 0 0 1
    outer loop
      vertex 4.75 -5.20096 -1.3
      vertex 1 -2 -1.3
      vertex 4.4963 -5.38528 -1.3
    endloop
  endfacet
  facet normal 0 0 1
    outer loop
      vertex 8.5 -2 -1.3
      vertex 6.96722 -6.81187 -1.3
      vertex 8.5 -53 -1.3
    endloop
  endfacet
  facet normal -0 0 1
    outer loop
      vertex 6.96722 -48.8119 -1.3
      vertex 8.5 -53 -1.3
      vertex 7 -48.5 -1.3
    endloop
  endfacet
  facet normal -0 0 1
    outer loop
      vertex 6.87032 -49.1101 -1.3
      vertex 8.5 -53 -1.3
      vertex 6.96722 -48.8119 -1.3
    endloop
  endfacet
  facet normal -0 0 1
    outer loop
      vertex 6.71352 -49.3817 -1.3
      vertex 8.5 -53 -1.3
      vertex 6.87032 -49.1101 -1.3
    endloop
  endfacet
  facet normal -0 0 1
    outer loop
      vertex 6.5037 -49.6147 -1.3
      vertex 8.5 -53 -1.3
      vertex 6.71352 -49.3817 -1.3
    endloop
  endfacet
  facet normal -0 0 1
    outer loop
      vertex 6.25 -49.799 -1.3
      vertex 8.5 -53 -1.3
      vertex 6.5037 -49.6147 -1.3
    endloop
  endfacet
  facet normal -0 0 1
    outer loop
      vertex 5.96352 -49.9266 -1.3
      vertex 8.5 -53 -1.3
      vertex 6.25 -49.799 -1.3
    endloop
  endfacet
  facet normal -0 0 1
    outer loop
      vertex 5.65679 -49.9918 -1.3
      vertex 8.5 -53 -1.3
      vertex 5.96352 -49.9266 -1.3
    endloop
  endfacet
  facet normal -0 0 1
    outer loop
      vertex 5.34321 -49.9918 -1.3
      vertex 8.5 -53 -1.3
      vertex 5.65679 -49.9918 -1.3
    endloop
  endfacet
  facet normal 0 0 1
    outer loop
      vertex 1 -53 -1.3
      vertex 5.34321 -49.9918 -1.3
      vertex 5.03647 -49.9266 -1.3
    endloop
  endfacet
  facet normal 0 0 1
    outer loop
      vertex 1 -53 -1.3
      vertex 5.03647 -49.9266 -1.3
      vertex 4.75 -49.799 -1.3
    endloop
  endfacet
  facet normal 0 0 1
    outer loop
      vertex 1 -53 -1.3
      vertex 4.75 -49.799 -1.3
      vertex 4.4963 -49.6147 -1.3
    endloop
  endfacet
  facet normal 0 0 1
    outer loop
      vertex 5.34321 -49.9918 -1.3
      vertex 1 -53 -1.3
      vertex 8.5 -53 -1.3
    endloop
  endfacet
  facet normal 0 0 1
    outer loop
      vertex 4.28647 -49.3817 -1.3
      vertex 1 -53 -1.3
      vertex 4.4963 -49.6147 -1.3
    endloop
  endfacet
  facet normal 0 0 1
    outer loop
      vertex 4.12968 -49.1101 -1.3
      vertex 1 -53 -1.3
      vertex 4.28647 -49.3817 -1.3
    endloop
  endfacet
  facet normal 0 0 1
    outer loop
      vertex 4.03278 -48.8119 -1.3
      vertex 1 -53 -1.3
      vertex 4.12968 -49.1101 -1.3
    endloop
  endfacet
  facet normal 0 0 1
    outer loop
      vertex 4 -48.5 -1.3
      vertex 1 -53 -1.3
      vertex 4.03278 -48.8119 -1.3
    endloop
  endfacet
  facet normal 0 0 1
    outer loop
      vertex 4.03278 -48.1881 -1.3
      vertex 1 -53 -1.3
      vertex 4 -48.5 -1.3
    endloop
  endfacet
  facet normal 0 0 1
    outer loop
      vertex 88 -2 -1.3
      vertex 84.8703 -7.1101 -1.3
      vertex 88 -53 -1.3
    endloop
  endfacet
  facet normal 0 0 1
    outer loop
      vertex 88 -53 -1.3
      vertex 84.9672 -48.1881 -1.3
      vertex 85 -48.5 -1.3
    endloop
  endfacet
  facet normal -0 0 1
    outer loop
      vertex 84.8703 -47.8899 -1.3
      vertex 88 -53 -1.3
      vertex 84.8703 -7.1101 -1.3
    endloop
  endfacet
  facet normal 0 0 1
    outer loop
      vertex 88 -53 -1.3
      vertex 84.8703 -47.8899 -1.3
      vertex 84.9672 -48.1881 -1.3
    endloop
  endfacet
  facet normal -0 0 1
    outer loop
      vertex 84.7135 -7.38168 -1.3
      vertex 84.8703 -47.8899 -1.3
      vertex 84.8703 -7.1101 -1.3
    endloop
  endfacet
  facet normal 0 0 1
    outer loop
      vertex 84.7135 -7.38168 -1.3
      vertex 84.7135 -47.6183 -1.3
      vertex 84.8703 -47.8899 -1.3
    endloop
  endfacet
  facet normal -0 0 1
    outer loop
      vertex 84.5037 -7.61472 -1.3
      vertex 84.7135 -47.6183 -1.3
      vertex 84.7135 -7.38168 -1.3
    endloop
  endfacet
  facet normal 0 0 1
    outer loop
      vertex 84.5037 -7.61472 -1.3
      vertex 84.5037 -47.3853 -1.3
      vertex 84.7135 -47.6183 -1.3
    endloop
  endfacet
  facet normal -0 0 1
    outer loop
      vertex 84.25 -7.79904 -1.3
      vertex 84.5037 -47.3853 -1.3
      vertex 84.5037 -7.61472 -1.3
    endloop
  endfacet
  facet normal 0 0 1
    outer loop
      vertex 84.25 -7.79904 -1.3
      vertex 84.25 -47.201 -1.3
      vertex 84.5037 -47.3853 -1.3
    endloop
  endfacet
  facet normal -0 0 1
    outer loop
      vertex 83.9635 -7.92658 -1.3
      vertex 84.25 -47.201 -1.3
      vertex 84.25 -7.79904 -1.3
    endloop
  endfacet
  facet normal 0 0 1
    outer loop
      vertex 83.9635 -7.92658 -1.3
      vertex 83.9635 -47.0734 -1.3
      vertex 84.25 -47.201 -1.3
    endloop
  endfacet
  facet normal -0 0 1
    outer loop
      vertex 83.6568 -7.99178 -1.3
      vertex 83.9635 -47.0734 -1.3
      vertex 83.9635 -7.92658 -1.3
    endloop
  endfacet
  facet normal 0 0 1
    outer loop
      vertex 83.6568 -7.99178 -1.3
      vertex 83.6568 -47.0082 -1.3
      vertex 83.9635 -47.0734 -1.3
    endloop
  endfacet
  facet normal -0 0 1
    outer loop
      vertex 83.3432 -7.99178 -1.3
      vertex 83.6568 -47.0082 -1.3
      vertex 83.6568 -7.99178 -1.3
    endloop
  endfacet
  facet normal 0 0 1
    outer loop
      vertex 83.3432 -7.99178 -1.3
      vertex 83.3432 -47.0082 -1.3
      vertex 83.6568 -47.0082 -1.3
    endloop
  endfacet
  facet normal 0 0 1
    outer loop
      vertex 83.0365 -7.92658 -1.3
      vertex 83.3432 -47.0082 -1.3
      vertex 83.3432 -7.99178 -1.3
    endloop
  endfacet
  facet normal 0 0 1
    outer loop
      vertex 83.0365 -7.92658 -1.3
      vertex 83.0365 -47.0734 -1.3
      vertex 83.3432 -47.0082 -1.3
    endloop
  endfacet
  facet normal 0 0 1
    outer loop
      vertex 82.75 -7.79904 -1.3
      vertex 83.0365 -47.0734 -1.3
      vertex 83.0365 -7.92658 -1.3
    endloop
  endfacet
  facet normal 0 0 1
    outer loop
      vertex 82.75 -7.79904 -1.3
      vertex 82.75 -47.201 -1.3
      vertex 83.0365 -47.0734 -1.3
    endloop
  endfacet
  facet normal 0 0 1
    outer loop
      vertex 82.4963 -7.61472 -1.3
      vertex 82.75 -47.201 -1.3
      vertex 82.75 -7.79904 -1.3
    endloop
  endfacet
  facet normal 0 0 1
    outer loop
      vertex 82.4963 -7.61472 -1.3
      vertex 82.4963 -47.3853 -1.3
      vertex 82.75 -47.201 -1.3
    endloop
  endfacet
  facet normal 0 0 1
    outer loop
      vertex 82.2865 -7.38168 -1.3
      vertex 82.4963 -47.3853 -1.3
      vertex 82.4963 -7.61472 -1.3
    endloop
  endfacet
  facet normal 0 0 1
    outer loop
      vertex 82.2865 -7.38168 -1.3
      vertex 82.2865 -47.6183 -1.3
      vertex 82.4963 -47.3853 -1.3
    endloop
  endfacet
  facet normal 0 0 1
    outer loop
      vertex 82.1297 -7.1101 -1.3
      vertex 82.2865 -47.6183 -1.3
      vertex 82.2865 -7.38168 -1.3
    endloop
  endfacet
  facet normal 0 0 1
    outer loop
      vertex 82.1297 -7.1101 -1.3
      vertex 82.1297 -47.8899 -1.3
      vertex 82.2865 -47.6183 -1.3
    endloop
  endfacet
  facet normal 0 0 1
    outer loop
      vertex 82.0328 -6.81187 -1.3
      vertex 82.1297 -47.8899 -1.3
      vertex 82.1297 -7.1101 -1.3
    endloop
  endfacet
  facet normal 0 0 1
    outer loop
      vertex 82.0328 -6.81187 -1.3
      vertex 82.0328 -48.1881 -1.3
      vertex 82.1297 -47.8899 -1.3
    endloop
  endfacet
  facet normal 0 0 1
    outer loop
      vertex 80.5 -2 -1.3
      vertex 82.0328 -6.81187 -1.3
      vertex 82 -6.5 -1.3
    endloop
  endfacet
  facet normal 0 0 1
    outer loop
      vertex 82.0328 -6.81187 -1.3
      vertex 80.5 -2 -1.3
      vertex 82.0328 -48.1881 -1.3
    endloop
  endfacet
  facet normal 0 0 1
    outer loop
      vertex 84.9672 -6.81187 -1.3
      vertex 88 -2 -1.3
      vertex 85 -6.5 -1.3
    endloop
  endfacet
  facet normal 0 0 1
    outer loop
      vertex 88 -2 -1.3
      vertex 84.9672 -6.18813 -1.3
      vertex 85 -6.5 -1.3
    endloop
  endfacet
  facet normal 0 0 1
    outer loop
      vertex 88 -2 -1.3
      vertex 84.8703 -5.88989 -1.3
      vertex 84.9672 -6.18813 -1.3
    endloop
  endfacet
  facet normal 0 0 1
    outer loop
      vertex 88 -2 -1.3
      vertex 84.7135 -5.61832 -1.3
      vertex 84.8703 -5.88989 -1.3
    endloop
  endfacet
  facet normal 0 0 1
    outer loop
      vertex 88 -2 -1.3
      vertex 84.5037 -5.38528 -1.3
      vertex 84.7135 -5.61832 -1.3
    endloop
  endfacet
  facet normal 0 0 1
    outer loop
      vertex 88 -2 -1.3
      vertex 84.25 -5.20096 -1.3
      vertex 84.5037 -5.38528 -1.3
    endloop
  endfacet
  facet normal 0 0 1
    outer loop
      vertex 88 -2 -1.3
      vertex 83.9635 -5.07341 -1.3
      vertex 84.25 -5.20096 -1.3
    endloop
  endfacet
  facet normal 0 0 1
    outer loop
      vertex 88 -2 -1.3
      vertex 83.6568 -5.00822 -1.3
      vertex 83.9635 -5.07341 -1.3
    endloop
  endfacet
  facet normal -0 0 1
    outer loop
      vertex 80.5 -2 -1.3
      vertex 83.6568 -5.00822 -1.3
      vertex 88 -2 -1.3
    endloop
  endfacet
  facet normal 0 0 1
    outer loop
      vertex 83.6568 -5.00822 -1.3
      vertex 80.5 -2 -1.3
      vertex 83.3432 -5.00822 -1.3
    endloop
  endfacet
  facet normal 0 0 1
    outer loop
      vertex 83.3432 -5.00822 -1.3
      vertex 80.5 -2 -1.3
      vertex 83.0365 -5.07341 -1.3
    endloop
  endfacet
  facet normal 0 0 1
    outer loop
      vertex 80.5 -53 -1.3
      vertex 82.0328 -48.1881 -1.3
      vertex 80.5 -2 -1.3
    endloop
  endfacet
  facet normal 0 0 1
    outer loop
      vertex 82.0328 -6.18813 -1.3
      vertex 80.5 -2 -1.3
      vertex 82 -6.5 -1.3
    endloop
  endfacet
  facet normal 0 0 1
    outer loop
      vertex 82.1297 -5.88989 -1.3
      vertex 80.5 -2 -1.3
      vertex 82.0328 -6.18813 -1.3
    endloop
  endfacet
  facet normal 0 0 1
    outer loop
      vertex 82.2865 -5.61832 -1.3
      vertex 80.5 -2 -1.3
      vertex 82.1297 -5.88989 -1.3
    endloop
  endfacet
  facet normal 0 0 1
    outer loop
      vertex 82.4963 -5.38528 -1.3
      vertex 80.5 -2 -1.3
      vertex 82.2865 -5.61832 -1.3
    endloop
  endfacet
  facet normal 0 0 1
    outer loop
      vertex 82.75 -5.20096 -1.3
      vertex 80.5 -2 -1.3
      vertex 82.4963 -5.38528 -1.3
    endloop
  endfacet
  facet normal 0 0 1
    outer loop
      vertex 83.0365 -5.07341 -1.3
      vertex 80.5 -2 -1.3
      vertex 82.75 -5.20096 -1.3
    endloop
  endfacet
  facet normal 0 0 1
    outer loop
      vertex 84.8703 -7.1101 -1.3
      vertex 88 -2 -1.3
      vertex 84.9672 -6.81187 -1.3
    endloop
  endfacet
  facet normal -0 0 1
    outer loop
      vertex 84.9672 -48.8119 -1.3
      vertex 88 -53 -1.3
      vertex 85 -48.5 -1.3
    endloop
  endfacet
  facet normal -0 0 1
    outer loop
      vertex 84.8703 -49.1101 -1.3
      vertex 88 -53 -1.3
      vertex 84.9672 -48.8119 -1.3
    endloop
  endfacet
  facet normal -0 0 1
    outer loop
      vertex 84.7135 -49.3817 -1.3
      vertex 88 -53 -1.3
      vertex 84.8703 -49.1101 -1.3
    endloop
  endfacet
  facet normal -0 0 1
    outer loop
      vertex 84.5037 -49.6147 -1.3
      vertex 88 -53 -1.3
      vertex 84.7135 -49.3817 -1.3
    endloop
  endfacet
  facet normal -0 0 1
    outer loop
      vertex 84.25 -49.799 -1.3
      vertex 88 -53 -1.3
      vertex 84.5037 -49.6147 -1.3
    endloop
  endfacet
  facet normal -0 0 1
    outer loop
      vertex 83.9635 -49.9266 -1.3
      vertex 88 -53 -1.3
      vertex 84.25 -49.799 -1.3
    endloop
  endfacet
  facet normal -0 0 1
    outer loop
      vertex 83.6568 -49.9918 -1.3
      vertex 88 -53 -1.3
      vertex 83.9635 -49.9266 -1.3
    endloop
  endfacet
  facet normal 0 0 1
    outer loop
      vertex 80.5 -53 -1.3
      vertex 83.6568 -49.9918 -1.3
      vertex 83.3432 -49.9918 -1.3
    endloop
  endfacet
  facet normal 0 0 1
    outer loop
      vertex 80.5 -53 -1.3
      vertex 83.3432 -49.9918 -1.3
      vertex 83.0365 -49.9266 -1.3
    endloop
  endfacet
  facet normal 0 0 1
    outer loop
      vertex 80.5 -53 -1.3
      vertex 83.0365 -49.9266 -1.3
      vertex 82.75 -49.799 -1.3
    endloop
  endfacet
  facet normal 0 0 1
    outer loop
      vertex 83.6568 -49.9918 -1.3
      vertex 80.5 -53 -1.3
      vertex 88 -53 -1.3
    endloop
  endfacet
  facet normal 0 0 1
    outer loop
      vertex 82.4963 -49.6147 -1.3
      vertex 80.5 -53 -1.3
      vertex 82.75 -49.799 -1.3
    endloop
  endfacet
  facet normal 0 0 1
    outer loop
      vertex 82.2865 -49.3817 -1.3
      vertex 80.5 -53 -1.3
      vertex 82.4963 -49.6147 -1.3
    endloop
  endfacet
  facet normal 0 0 1
    outer loop
      vertex 82.1297 -49.1101 -1.3
      vertex 80.5 -53 -1.3
      vertex 82.2865 -49.3817 -1.3
    endloop
  endfacet
  facet normal 0 0 1
    outer loop
      vertex 82.0328 -48.8119 -1.3
      vertex 80.5 -53 -1.3
      vertex 82.1297 -49.1101 -1.3
    endloop
  endfacet
  facet normal 0 0 1
    outer loop
      vertex 82 -48.5 -1.3
      vertex 80.5 -53 -1.3
      vertex 82.0328 -48.8119 -1.3
    endloop
  endfacet
  facet normal 0 0 1
    outer loop
      vertex 82.0328 -48.1881 -1.3
      vertex 80.5 -53 -1.3
      vertex 82 -48.5 -1.3
    endloop
  endfacet
  facet normal 1 -0 0
    outer loop
      vertex 1 -53 0
      vertex 1 -2 -1.3
      vertex 1 -2 0
    endloop
  endfacet
  facet normal 1 0 0
    outer loop
      vertex 1 -2 -1.3
      vertex 1 -53 0
      vertex 1 -53 -1.3
    endloop
  endfacet
  facet normal 0 1 -0
    outer loop
      vertex 80.5 -53 -4.6
      vertex 8.5 -53 -1.3
      vertex 80.5 -53 -1.3
    endloop
  endfacet
  facet normal 0 1 0
    outer loop
      vertex 8.5 -53 -1.3
      vertex 80.5 -53 -4.6
      vertex 8.5 -53 -4.6
    endloop
  endfacet
  facet normal 0 1 0
    outer loop
      vertex 80.5 -53 -1.3
      vertex 88 -53 0
      vertex 88 -53 -1.3
    endloop
  endfacet
  facet normal 0 1 0
    outer loop
      vertex 88 -53 0
      vertex 80.5 -53 -1.3
      vertex 1 -53 0
    endloop
  endfacet
  facet normal 0 1 -0
    outer loop
      vertex 8.5 -53 -1.3
      vertex 1 -53 0
      vertex 80.5 -53 -1.3
    endloop
  endfacet
  facet normal 0 1 0
    outer loop
      vertex 1 -53 0
      vertex 8.5 -53 -1.3
      vertex 1 -53 -1.3
    endloop
  endfacet
  facet normal 0 -1 0
    outer loop
      vertex 8.5 -2 -4.6
      vertex 80.5 -2 -1.3
      vertex 8.5 -2 -1.3
    endloop
  endfacet
  facet normal 0 -1 -0
    outer loop
      vertex 80.5 -2 -1.3
      vertex 8.5 -2 -4.6
      vertex 80.5 -2 -4.6
    endloop
  endfacet
  facet normal 0 -1 0
    outer loop
      vertex 8.5 -2 -1.3
      vertex 1 -2 0
      vertex 1 -2 -1.3
    endloop
  endfacet
  facet normal 0 -1 0
    outer loop
      vertex 1 -2 0
      vertex 8.5 -2 -1.3
      vertex 88 -2 0
    endloop
  endfacet
  facet normal 0 -1 0
    outer loop
      vertex 80.5 -2 -1.3
      vertex 88 -2 0
      vertex 8.5 -2 -1.3
    endloop
  endfacet
  facet normal 0 -1 -0
    outer loop
      vertex 88 -2 0
      vertex 80.5 -2 -1.3
      vertex 88 -2 -1.3
    endloop
  endfacet
  facet normal -1 0 0
    outer loop
      vertex 80.5 -53 -4.6
      vertex 80.5 -2 -1.3
      vertex 80.5 -2 -4.6
    endloop
  endfacet
  facet normal -1 -0 0
    outer loop
      vertex 80.5 -2 -1.3
      vertex 80.5 -53 -4.6
      vertex 80.5 -53 -1.3
    endloop
  endfacet
  facet normal 0 0 1
    outer loop
      vertex 80.5 -2 -4.6
      vertex 79 -4.5 -4.6
      vertex 80.5 -53 -4.6
    endloop
  endfacet
  facet normal 0 0 1
    outer loop
      vertex 80.5 -2 -4.6
      vertex 15 -4.5 -4.6
      vertex 79 -4.5 -4.6
    endloop
  endfacet
  facet normal 0 0 1
    outer loop
      vertex 15 -4.5 -4.6
      vertex 8.5 -2 -4.6
      vertex 15 -50.5 -4.6
    endloop
  endfacet
  facet normal -0 0 1
    outer loop
      vertex 8.5 -2 -4.6
      vertex 15 -4.5 -4.6
      vertex 80.5 -2 -4.6
    endloop
  endfacet
  facet normal -0 0 1
    outer loop
      vertex 79 -50.5 -4.6
      vertex 80.5 -53 -4.6
      vertex 79 -4.5 -4.6
    endloop
  endfacet
  facet normal -0 0 1
    outer loop
      vertex 15 -50.5 -4.6
      vertex 80.5 -53 -4.6
      vertex 79 -50.5 -4.6
    endloop
  endfacet
  facet normal 0 0 1
    outer loop
      vertex 15 -50.5 -4.6
      vertex 8.5 -53 -4.6
      vertex 80.5 -53 -4.6
    endloop
  endfacet
  facet normal 0 0 1
    outer loop
      vertex 8.5 -53 -4.6
      vertex 15 -50.5 -4.6
      vertex 8.5 -2 -4.6
    endloop
  endfacet
  facet normal 1 -0 0
    outer loop
      vertex 8.5 -53 -1.3
      vertex 8.5 -2 -4.6
      vertex 8.5 -2 -1.3
    endloop
  endfacet
  facet normal 1 0 0
    outer loop
      vertex 8.5 -2 -4.6
      vertex 8.5 -53 -1.3
      vertex 8.5 -53 -4.6
    endloop
  endfacet
  facet normal -1 0 0
    outer loop
      vertex 79 -50.5 -6
      vertex 79 -4.5 -4.6
      vertex 79 -4.5 -6
    endloop
  endfacet
  facet normal -1 -0 0
    outer loop
      vertex 79 -4.5 -4.6
      vertex 79 -50.5 -6
      vertex 79 -50.5 -4.6
    endloop
  endfacet
  facet normal 1 -0 0
    outer loop
      vertex 15 -50.5 -4.6
      vertex 15 -4.5 -6
      vertex 15 -4.5 -4.6
    endloop
  endfacet
  facet normal 1 0 0
    outer loop
      vertex 15 -4.5 -6
      vertex 15 -50.5 -4.6
      vertex 15 -50.5 -6
    endloop
  endfacet
  facet normal 0 1 -0
    outer loop
      vertex 79 -50.5 -6
      vertex 15 -50.5 -4.6
      vertex 79 -50.5 -4.6
    endloop
  endfacet
  facet normal 0 1 0
    outer loop
      vertex 15 -50.5 -4.6
      vertex 79 -50.5 -6
      vertex 15 -50.5 -6
    endloop
  endfacet
  facet normal 0 -1 0
    outer loop
      vertex 15 -4.5 -6
      vertex 79 -4.5 -4.6
      vertex 15 -4.5 -4.6
    endloop
  endfacet
  facet normal 0 -1 -0
    outer loop
      vertex 79 -4.5 -4.6
      vertex 15 -4.5 -6
      vertex 79 -4.5 -6
    endloop
  endfacet
  facet normal -0.207889 -0.978152 0
    outer loop
      vertex 5.65679 -5.00822 -6
      vertex 5.96352 -5.07341 -1.3
      vertex 5.65679 -5.00822 -1.3
    endloop
  endfacet
  facet normal -0.207889 -0.978152 -0
    outer loop
      vertex 5.96352 -5.07341 -1.3
      vertex 5.65679 -5.00822 -6
      vertex 5.96352 -5.07341 -6
    endloop
  endfacet
  facet normal -0.951057 0.309015 0
    outer loop
      vertex 6.87032 -7.1101 -6
      vertex 6.96722 -6.81187 -1.3
      vertex 6.96722 -6.81187 -6
    endloop
  endfacet
  facet normal -0.951057 0.309015 0
    outer loop
      vertex 6.96722 -6.81187 -1.3
      vertex 6.87032 -7.1101 -6
      vertex 6.87032 -7.1101 -1.3
    endloop
  endfacet
  facet normal -0.994522 0.104532 0
    outer loop
      vertex 6.96722 -6.81187 -6
      vertex 7 -6.5 -1.3
      vertex 7 -6.5 -6
    endloop
  endfacet
  facet normal -0.994522 0.104532 0
    outer loop
      vertex 7 -6.5 -1.3
      vertex 6.96722 -6.81187 -6
      vertex 6.96722 -6.81187 -1.3
    endloop
  endfacet
  facet normal -0.866021 0.500008 0
    outer loop
      vertex 6.71352 -7.38168 -6
      vertex 6.87032 -7.1101 -1.3
      vertex 6.87032 -7.1101 -6
    endloop
  endfacet
  facet normal -0.866021 0.500008 0
    outer loop
      vertex 6.87032 -7.1101 -1.3
      vertex 6.71352 -7.38168 -6
      vertex 6.71352 -7.38168 -1.3
    endloop
  endfacet
  facet normal 0.743145 0.66913 0
    outer loop
      vertex 4.4963 -7.61472 -1.3
      vertex 4.28647 -7.38168 -6
      vertex 4.28647 -7.38168 -1.3
    endloop
  endfacet
  facet normal 0.743145 0.66913 0
    outer loop
      vertex 4.28647 -7.38168 -6
      vertex 4.4963 -7.61472 -1.3
      vertex 4.4963 -7.61472 -6
    endloop
  endfacet
  facet normal 0 1 -0
    outer loop
      vertex 5.65679 -7.99178 -6
      vertex 5.34321 -7.99178 -1.3
      vertex 5.65679 -7.99178 -1.3
    endloop
  endfacet
  facet normal 0 1 0
    outer loop
      vertex 5.34321 -7.99178 -1.3
      vertex 5.65679 -7.99178 -6
      vertex 5.34321 -7.99178 -6
    endloop
  endfacet
  facet normal 0.994522 0.104532 0
    outer loop
      vertex 4.03278 -6.81187 -1.3
      vertex 4 -6.5 -6
      vertex 4 -6.5 -1.3
    endloop
  endfacet
  facet normal 0.994522 0.104532 0
    outer loop
      vertex 4 -6.5 -6
      vertex 4.03278 -6.81187 -1.3
      vertex 4.03278 -6.81187 -6
    endloop
  endfacet
  facet normal 0.406751 -0.913539 0
    outer loop
      vertex 4.75 -5.20096 -6
      vertex 5.03647 -5.07341 -1.3
      vertex 4.75 -5.20096 -1.3
    endloop
  endfacet
  facet normal 0.406751 -0.913539 0
    outer loop
      vertex 5.03647 -5.07341 -1.3
      vertex 4.75 -5.20096 -6
      vertex 5.03647 -5.07341 -6
    endloop
  endfacet
  facet normal 0.406724 0.913551 -0
    outer loop
      vertex 5.03647 -7.92658 -6
      vertex 4.75 -7.79904 -1.3
      vertex 5.03647 -7.92658 -1.3
    endloop
  endfacet
  facet normal 0.406724 0.913551 0
    outer loop
      vertex 4.75 -7.79904 -1.3
      vertex 5.03647 -7.92658 -6
      vertex 4.75 -7.79904 -6
    endloop
  endfacet
  facet normal 0.587777 -0.809023 0
    outer loop
      vertex 4.4963 -5.38528 -6
      vertex 4.75 -5.20096 -1.3
      vertex 4.4963 -5.38528 -1.3
    endloop
  endfacet
  facet normal 0.587777 -0.809023 0
    outer loop
      vertex 4.75 -5.20096 -1.3
      vertex 4.4963 -5.38528 -6
      vertex 4.75 -5.20096 -6
    endloop
  endfacet
  facet normal -0.406739 -0.913544 0
    outer loop
      vertex 5.96352 -5.07341 -6
      vertex 6.25 -5.20096 -1.3
      vertex 5.96352 -5.07341 -1.3
    endloop
  endfacet
  facet normal -0.406739 -0.913544 -0
    outer loop
      vertex 6.25 -5.20096 -1.3
      vertex 5.96352 -5.07341 -6
      vertex 6.25 -5.20096 -6
    endloop
  endfacet
  facet normal -0.406712 0.913556 0
    outer loop
      vertex 6.25 -7.79904 -6
      vertex 5.96352 -7.92658 -1.3
      vertex 6.25 -7.79904 -1.3
    endloop
  endfacet
  facet normal -0.406712 0.913556 0
    outer loop
      vertex 5.96352 -7.92658 -1.3
      vertex 6.25 -7.79904 -6
      vertex 5.96352 -7.92658 -6
    endloop
  endfacet
  facet normal -0.743161 0.669113 0
    outer loop
      vertex 6.5037 -7.61472 -6
      vertex 6.71352 -7.38168 -1.3
      vertex 6.71352 -7.38168 -6
    endloop
  endfacet
  facet normal -0.743161 0.669113 0
    outer loop
      vertex 6.71352 -7.38168 -1.3
      vertex 6.5037 -7.61472 -6
      vertex 6.5037 -7.61472 -1.3
    endloop
  endfacet
  facet normal -0.743161 -0.669113 0
    outer loop
      vertex 6.71352 -5.61832 -6
      vertex 6.5037 -5.38528 -1.3
      vertex 6.5037 -5.38528 -6
    endloop
  endfacet
  facet normal -0.743161 -0.669113 0
    outer loop
      vertex 6.5037 -5.38528 -1.3
      vertex 6.71352 -5.61832 -6
      vertex 6.71352 -5.61832 -1.3
    endloop
  endfacet
  facet normal 0.866035 0.499984 0
    outer loop
      vertex 4.28647 -7.38168 -1.3
      vertex 4.12968 -7.1101 -6
      vertex 4.12968 -7.1101 -1.3
    endloop
  endfacet
  facet normal 0.866035 0.499984 0
    outer loop
      vertex 4.12968 -7.1101 -6
      vertex 4.28647 -7.38168 -1.3
      vertex 4.28647 -7.38168 -6
    endloop
  endfacet
  facet normal -0.587777 -0.809023 0
    outer loop
      vertex 6.25 -5.20096 -6
      vertex 6.5037 -5.38528 -1.3
      vertex 6.25 -5.20096 -1.3
    endloop
  endfacet
  facet normal -0.587777 -0.809023 -0
    outer loop
      vertex 6.5037 -5.38528 -1.3
      vertex 6.25 -5.20096 -6
      vertex 6.5037 -5.38528 -6
    endloop
  endfacet
  facet normal -0.994522 -0.104532 0
    outer loop
      vertex 7 -6.5 -6
      vertex 6.96722 -6.18813 -1.3
      vertex 6.96722 -6.18813 -6
    endloop
  endfacet
  facet normal -0.994522 -0.104532 0
    outer loop
      vertex 6.96722 -6.18813 -1.3
      vertex 7 -6.5 -6
      vertex 7 -6.5 -1.3
    endloop
  endfacet
  facet normal -0.95106 -0.309005 0
    outer loop
      vertex 6.96722 -6.18813 -6
      vertex 6.87032 -5.88989 -1.3
      vertex 6.87032 -5.88989 -6
    endloop
  endfacet
  facet normal -0.95106 -0.309005 0
    outer loop
      vertex 6.87032 -5.88989 -1.3
      vertex 6.96722 -6.18813 -6
      vertex 6.96722 -6.18813 -1.3
    endloop
  endfacet
  facet normal -0.866013 -0.500021 0
    outer loop
      vertex 6.87032 -5.88989 -6
      vertex 6.71352 -5.61832 -1.3
      vertex 6.71352 -5.61832 -6
    endloop
  endfacet
  facet normal -0.866013 -0.500021 0
    outer loop
      vertex 6.71352 -5.61832 -1.3
      vertex 6.87032 -5.88989 -6
      vertex 6.87032 -5.88989 -1.3
    endloop
  endfacet
  facet normal 0.743145 -0.66913 0
    outer loop
      vertex 4.28647 -5.61832 -1.3
      vertex 4.4963 -5.38528 -6
      vertex 4.4963 -5.38528 -1.3
    endloop
  endfacet
  facet normal 0.743145 -0.66913 0
    outer loop
      vertex 4.4963 -5.38528 -6
      vertex 4.28647 -5.61832 -1.3
      vertex 4.28647 -5.61832 -6
    endloop
  endfacet
  facet normal -0.207919 0.978146 0
    outer loop
      vertex 5.96352 -7.92658 -6
      vertex 5.65679 -7.99178 -1.3
      vertex 5.96352 -7.92658 -1.3
    endloop
  endfacet
  facet normal -0.207919 0.978146 0
    outer loop
      vertex 5.65679 -7.99178 -1.3
      vertex 5.96352 -7.92658 -6
      vertex 5.65679 -7.99178 -6
    endloop
  endfacet
  facet normal -0.587777 0.809023 0
    outer loop
      vertex 6.5037 -7.61472 -6
      vertex 6.25 -7.79904 -1.3
      vertex 6.5037 -7.61472 -1.3
    endloop
  endfacet
  facet normal -0.587777 0.809023 0
    outer loop
      vertex 6.25 -7.79904 -1.3
      vertex 6.5037 -7.61472 -6
      vertex 6.25 -7.79904 -6
    endloop
  endfacet
  facet normal 0.994522 -0.104532 0
    outer loop
      vertex 4 -6.5 -1.3
      vertex 4.03278 -6.18813 -6
      vertex 4.03278 -6.18813 -1.3
    endloop
  endfacet
  facet normal 0.994522 -0.104532 0
    outer loop
      vertex 4.03278 -6.18813 -6
      vertex 4 -6.5 -1.3
      vertex 4 -6.5 -6
    endloop
  endfacet
  facet normal 0 -1 0
    outer loop
      vertex 5.34321 -5.00822 -6
      vertex 5.65679 -5.00822 -1.3
      vertex 5.34321 -5.00822 -1.3
    endloop
  endfacet
  facet normal 0 -1 -0
    outer loop
      vertex 5.65679 -5.00822 -1.3
      vertex 5.34321 -5.00822 -6
      vertex 5.65679 -5.00822 -6
    endloop
  endfacet
  facet normal 0.587777 0.809023 -0
    outer loop
      vertex 4.75 -7.79904 -6
      vertex 4.4963 -7.61472 -1.3
      vertex 4.75 -7.79904 -1.3
    endloop
  endfacet
  facet normal 0.587777 0.809023 0
    outer loop
      vertex 4.4963 -7.61472 -1.3
      vertex 4.75 -7.79904 -6
      vertex 4.4963 -7.61472 -6
    endloop
  endfacet
  facet normal 0.95106 -0.309005 0
    outer loop
      vertex 4.03278 -6.18813 -1.3
      vertex 4.12968 -5.88989 -6
      vertex 4.12968 -5.88989 -1.3
    endloop
  endfacet
  facet normal 0.95106 -0.309005 0
    outer loop
      vertex 4.12968 -5.88989 -6
      vertex 4.03278 -6.18813 -1.3
      vertex 4.03278 -6.18813 -6
    endloop
  endfacet
  facet normal 0.207913 0.978147 -0
    outer loop
      vertex 5.34321 -7.99178 -6
      vertex 5.03647 -7.92658 -1.3
      vertex 5.34321 -7.99178 -1.3
    endloop
  endfacet
  facet normal 0.207913 0.978147 0
    outer loop
      vertex 5.03647 -7.92658 -1.3
      vertex 5.34321 -7.99178 -6
      vertex 5.03647 -7.92658 -6
    endloop
  endfacet
  facet normal 0.866027 -0.499998 0
    outer loop
      vertex 4.12968 -5.88989 -1.3
      vertex 4.28647 -5.61832 -6
      vertex 4.28647 -5.61832 -1.3
    endloop
  endfacet
  facet normal 0.866027 -0.499998 0
    outer loop
      vertex 4.28647 -5.61832 -6
      vertex 4.12968 -5.88989 -1.3
      vertex 4.12968 -5.88989 -6
    endloop
  endfacet
  facet normal 0.951057 0.309015 0
    outer loop
      vertex 4.12968 -7.1101 -1.3
      vertex 4.03278 -6.81187 -6
      vertex 4.03278 -6.81187 -1.3
    endloop
  endfacet
  facet normal 0.951057 0.309015 0
    outer loop
      vertex 4.03278 -6.81187 -6
      vertex 4.12968 -7.1101 -1.3
      vertex 4.12968 -7.1101 -6
    endloop
  endfacet
  facet normal 0.207882 -0.978154 0
    outer loop
      vertex 5.03647 -5.07341 -6
      vertex 5.34321 -5.00822 -1.3
      vertex 5.03647 -5.07341 -1.3
    endloop
  endfacet
  facet normal 0.207882 -0.978154 0
    outer loop
      vertex 5.34321 -5.00822 -1.3
      vertex 5.03647 -5.07341 -6
      vertex 5.34321 -5.00822 -6
    endloop
  endfacet
  facet normal -0.207919 -0.978146 0
    outer loop
      vertex 5.65679 -47.0082 -6
      vertex 5.96352 -47.0734 -1.3
      vertex 5.65679 -47.0082 -1.3
    endloop
  endfacet
  facet normal -0.207919 -0.978146 -0
    outer loop
      vertex 5.96352 -47.0734 -1.3
      vertex 5.65679 -47.0082 -6
      vertex 5.96352 -47.0734 -6
    endloop
  endfacet
  facet normal -0.951048 0.309043 0
    outer loop
      vertex 6.87032 -49.1101 -6
      vertex 6.96722 -48.8119 -1.3
      vertex 6.96722 -48.8119 -6
    endloop
  endfacet
  facet normal -0.951048 0.309043 0
    outer loop
      vertex 6.96722 -48.8119 -1.3
      vertex 6.87032 -49.1101 -6
      vertex 6.87032 -49.1101 -1.3
    endloop
  endfacet
  facet normal -0.994523 0.104522 0
    outer loop
      vertex 6.96722 -48.8119 -6
      vertex 7 -48.5 -1.3
      vertex 7 -48.5 -6
    endloop
  endfacet
  facet normal -0.994523 0.104522 0
    outer loop
      vertex 7 -48.5 -1.3
      vertex 6.96722 -48.8119 -6
      vertex 6.96722 -48.8119 -1.3
    endloop
  endfacet
  facet normal -0.866037 0.49998 0
    outer loop
      vertex 6.71352 -49.3817 -6
      vertex 6.87032 -49.1101 -1.3
      vertex 6.87032 -49.1101 -6
    endloop
  endfacet
  facet normal -0.866037 0.49998 0
    outer loop
      vertex 6.87032 -49.1101 -1.3
      vertex 6.71352 -49.3817 -6
      vertex 6.71352 -49.3817 -1.3
    endloop
  endfacet
  facet normal 0.743088 0.669194 0
    outer loop
      vertex 4.4963 -49.6147 -1.3
      vertex 4.28647 -49.3817 -6
      vertex 4.28647 -49.3817 -1.3
    endloop
  endfacet
  facet normal 0.743088 0.669194 0
    outer loop
      vertex 4.28647 -49.3817 -6
      vertex 4.4963 -49.6147 -1.3
      vertex 4.4963 -49.6147 -6
    endloop
  endfacet
  facet normal 0 1 -0
    outer loop
      vertex 5.65679 -49.9918 -6
      vertex 5.34321 -49.9918 -1.3
      vertex 5.65679 -49.9918 -1.3
    endloop
  endfacet
  facet normal 0 1 0
    outer loop
      vertex 5.34321 -49.9918 -1.3
      vertex 5.65679 -49.9918 -6
      vertex 5.34321 -49.9918 -6
    endloop
  endfacet
  facet normal 0.994523 0.104522 0
    outer loop
      vertex 4.03278 -48.8119 -1.3
      vertex 4 -48.5 -6
      vertex 4 -48.5 -1.3
    endloop
  endfacet
  facet normal 0.994523 0.104522 0
    outer loop
      vertex 4 -48.5 -6
      vertex 4.03278 -48.8119 -1.3
      vertex 4.03278 -48.8119 -6
    endloop
  endfacet
  facet normal 0.406884 -0.91348 0
    outer loop
      vertex 4.75 -47.201 -6
      vertex 5.03647 -47.0734 -1.3
      vertex 4.75 -47.201 -1.3
    endloop
  endfacet
  facet normal 0.406884 -0.91348 0
    outer loop
      vertex 5.03647 -47.0734 -1.3
      vertex 4.75 -47.201 -6
      vertex 5.03647 -47.0734 -6
    endloop
  endfacet
  facet normal 0.406884 0.91348 -0
    outer loop
      vertex 5.03647 -49.9266 -6
      vertex 4.75 -49.799 -1.3
      vertex 5.03647 -49.9266 -1.3
    endloop
  endfacet
  facet normal 0.406884 0.91348 0
    outer loop
      vertex 4.75 -49.799 -1.3
      vertex 5.03647 -49.9266 -6
      vertex 4.75 -49.799 -6
    endloop
  endfacet
  facet normal 0.587735 -0.809053 0
    outer loop
      vertex 4.4963 -47.3853 -6
      vertex 4.75 -47.201 -1.3
      vertex 4.4963 -47.3853 -1.3
    endloop
  endfacet
  facet normal 0.587735 -0.809053 0
    outer loop
      vertex 4.75 -47.201 -1.3
      vertex 4.4963 -47.3853 -6
      vertex 4.75 -47.201 -6
    endloop
  endfacet
  facet normal -0.406872 -0.913485 0
    outer loop
      vertex 5.96352 -47.0734 -6
      vertex 6.25 -47.201 -1.3
      vertex 5.96352 -47.0734 -1.3
    endloop
  endfacet
  facet normal -0.406872 -0.913485 -0
    outer loop
      vertex 6.25 -47.201 -1.3
      vertex 5.96352 -47.0734 -6
      vertex 6.25 -47.201 -6
    endloop
  endfacet
  facet normal -0.406872 0.913485 0
    outer loop
      vertex 6.25 -49.799 -6
      vertex 5.96352 -49.9266 -1.3
      vertex 6.25 -49.799 -1.3
    endloop
  endfacet
  facet normal -0.406872 0.913485 0
    outer loop
      vertex 5.96352 -49.9266 -1.3
      vertex 6.25 -49.799 -6
      vertex 5.96352 -49.9266 -6
    endloop
  endfacet
  facet normal -0.743104 0.669176 0
    outer loop
      vertex 6.5037 -49.6147 -6
      vertex 6.71352 -49.3817 -1.3
      vertex 6.71352 -49.3817 -6
    endloop
  endfacet
  facet normal -0.743104 0.669176 0
    outer loop
      vertex 6.71352 -49.3817 -1.3
      vertex 6.5037 -49.6147 -6
      vertex 6.5037 -49.6147 -1.3
    endloop
  endfacet
  facet normal -0.743104 -0.669176 0
    outer loop
      vertex 6.71352 -47.6183 -6
      vertex 6.5037 -47.3853 -1.3
      vertex 6.5037 -47.3853 -6
    endloop
  endfacet
  facet normal -0.743104 -0.669176 0
    outer loop
      vertex 6.5037 -47.3853 -1.3
      vertex 6.71352 -47.6183 -6
      vertex 6.71352 -47.6183 -1.3
    endloop
  endfacet
  facet normal 0.866051 0.499956 0
    outer loop
      vertex 4.28647 -49.3817 -1.3
      vertex 4.12968 -49.1101 -6
      vertex 4.12968 -49.1101 -1.3
    endloop
  endfacet
  facet normal 0.866051 0.499956 0
    outer loop
      vertex 4.12968 -49.1101 -6
      vertex 4.28647 -49.3817 -1.3
      vertex 4.28647 -49.3817 -6
    endloop
  endfacet
  facet normal -0.587735 -0.809053 0
    outer loop
      vertex 6.25 -47.201 -6
      vertex 6.5037 -47.3853 -1.3
      vertex 6.25 -47.201 -1.3
    endloop
  endfacet
  facet normal -0.587735 -0.809053 -0
    outer loop
      vertex 6.5037 -47.3853 -1.3
      vertex 6.25 -47.201 -6
      vertex 6.5037 -47.3853 -6
    endloop
  endfacet
  facet normal -0.994523 -0.104522 0
    outer loop
      vertex 7 -48.5 -6
      vertex 6.96722 -48.1881 -1.3
      vertex 6.96722 -48.1881 -6
    endloop
  endfacet
  facet normal -0.994523 -0.104522 0
    outer loop
      vertex 6.96722 -48.1881 -1.3
      vertex 7 -48.5 -6
      vertex 7 -48.5 -1.3
    endloop
  endfacet
  facet normal -0.951048 -0.309043 0
    outer loop
      vertex 6.96722 -48.1881 -6
      vertex 6.87032 -47.8899 -1.3
      vertex 6.87032 -47.8899 -6
    endloop
  endfacet
  facet normal -0.951048 -0.309043 0
    outer loop
      vertex 6.87032 -47.8899 -1.3
      vertex 6.96722 -48.1881 -6
      vertex 6.96722 -48.1881 -1.3
    endloop
  endfacet
  facet normal -0.866037 -0.49998 0
    outer loop
      vertex 6.87032 -47.8899 -6
      vertex 6.71352 -47.6183 -1.3
      vertex 6.71352 -47.6183 -6
    endloop
  endfacet
  facet normal -0.866037 -0.49998 0
    outer loop
      vertex 6.71352 -47.6183 -1.3
      vertex 6.87032 -47.8899 -6
      vertex 6.87032 -47.8899 -1.3
    endloop
  endfacet
  facet normal 0.743088 -0.669194 0
    outer loop
      vertex 4.28647 -47.6183 -1.3
      vertex 4.4963 -47.3853 -6
      vertex 4.4963 -47.3853 -1.3
    endloop
  endfacet
  facet normal 0.743088 -0.669194 0
    outer loop
      vertex 4.4963 -47.3853 -6
      vertex 4.28647 -47.6183 -1.3
      vertex 4.28647 -47.6183 -6
    endloop
  endfacet
  facet normal -0.207919 0.978146 0
    outer loop
      vertex 5.96352 -49.9266 -6
      vertex 5.65679 -49.9918 -1.3
      vertex 5.96352 -49.9266 -1.3
    endloop
  endfacet
  facet normal -0.207919 0.978146 0
    outer loop
      vertex 5.65679 -49.9918 -1.3
      vertex 5.96352 -49.9266 -6
      vertex 5.65679 -49.9918 -6
    endloop
  endfacet
  facet normal -0.587735 0.809053 0
    outer loop
      vertex 6.5037 -49.6147 -6
      vertex 6.25 -49.799 -1.3
      vertex 6.5037 -49.6147 -1.3
    endloop
  endfacet
  facet normal -0.587735 0.809053 0
    outer loop
      vertex 6.25 -49.799 -1.3
      vertex 6.5037 -49.6147 -6
      vertex 6.25 -49.799 -6
    endloop
  endfacet
  facet normal 0.994523 -0.104522 0
    outer loop
      vertex 4 -48.5 -1.3
      vertex 4.03278 -48.1881 -6
      vertex 4.03278 -48.1881 -1.3
    endloop
  endfacet
  facet normal 0.994523 -0.104522 0
    outer loop
      vertex 4.03278 -48.1881 -6
      vertex 4 -48.5 -1.3
      vertex 4 -48.5 -6
    endloop
  endfacet
  facet normal 0 -1 0
    outer loop
      vertex 5.34321 -47.0082 -6
      vertex 5.65679 -47.0082 -1.3
      vertex 5.34321 -47.0082 -1.3
    endloop
  endfacet
  facet normal 0 -1 -0
    outer loop
      vertex 5.65679 -47.0082 -1.3
      vertex 5.34321 -47.0082 -6
      vertex 5.65679 -47.0082 -6
    endloop
  endfacet
  facet normal 0.587735 0.809053 -0
    outer loop
      vertex 4.75 -49.799 -6
      vertex 4.4963 -49.6147 -1.3
      vertex 4.75 -49.799 -1.3
    endloop
  endfacet
  facet normal 0.587735 0.809053 0
    outer loop
      vertex 4.4963 -49.6147 -1.3
      vertex 4.75 -49.799 -6
      vertex 4.4963 -49.6147 -6
    endloop
  endfacet
  facet normal 0.951048 -0.309043 0
    outer loop
      vertex 4.03278 -48.1881 -1.3
      vertex 4.12968 -47.8899 -6
      vertex 4.12968 -47.8899 -1.3
    endloop
  endfacet
  facet normal 0.951048 -0.309043 0
    outer loop
      vertex 4.12968 -47.8899 -6
      vertex 4.03278 -48.1881 -1.3
      vertex 4.03278 -48.1881 -6
    endloop
  endfacet
  facet normal 0.207913 0.978147 -0
    outer loop
      vertex 5.34321 -49.9918 -6
      vertex 5.03647 -49.9266 -1.3
      vertex 5.34321 -49.9918 -1.3
    endloop
  endfacet
  facet normal 0.207913 0.978147 0
    outer loop
      vertex 5.03647 -49.9266 -1.3
      vertex 5.34321 -49.9918 -6
      vertex 5.03647 -49.9266 -6
    endloop
  endfacet
  facet normal 0.866051 -0.499956 0
    outer loop
      vertex 4.12968 -47.8899 -1.3
      vertex 4.28647 -47.6183 -6
      vertex 4.28647 -47.6183 -1.3
    endloop
  endfacet
  facet normal 0.866051 -0.499956 0
    outer loop
      vertex 4.28647 -47.6183 -6
      vertex 4.12968 -47.8899 -1.3
      vertex 4.12968 -47.8899 -6
    endloop
  endfacet
  facet normal 0.951048 0.309043 0
    outer loop
      vertex 4.12968 -49.1101 -1.3
      vertex 4.03278 -48.8119 -6
      vertex 4.03278 -48.8119 -1.3
    endloop
  endfacet
  facet normal 0.951048 0.309043 0
    outer loop
      vertex 4.03278 -48.8119 -6
      vertex 4.12968 -49.1101 -1.3
      vertex 4.12968 -49.1101 -6
    endloop
  endfacet
  facet normal 0.207913 -0.978147 0
    outer loop
      vertex 5.03647 -47.0734 -6
      vertex 5.34321 -47.0082 -1.3
      vertex 5.03647 -47.0734 -1.3
    endloop
  endfacet
  facet normal 0.207913 -0.978147 0
    outer loop
      vertex 5.34321 -47.0082 -1.3
      vertex 5.03647 -47.0734 -6
      vertex 5.34321 -47.0082 -6
    endloop
  endfacet
  facet normal -0.207908 -0.978148 0
    outer loop
      vertex 83.6568 -5.00822 -6
      vertex 83.9635 -5.07341 -1.3
      vertex 83.6568 -5.00822 -1.3
    endloop
  endfacet
  facet normal -0.207908 -0.978148 -0
    outer loop
      vertex 83.9635 -5.07341 -1.3
      vertex 83.6568 -5.00822 -6
      vertex 83.9635 -5.07341 -6
    endloop
  endfacet
  facet normal -0.951057 0.309015 0
    outer loop
      vertex 84.8703 -7.1101 -6
      vertex 84.9672 -6.81187 -1.3
      vertex 84.9672 -6.81187 -6
    endloop
  endfacet
  facet normal -0.951057 0.309015 0
    outer loop
      vertex 84.9672 -6.81187 -1.3
      vertex 84.8703 -7.1101 -6
      vertex 84.8703 -7.1101 -1.3
    endloop
  endfacet
  facet normal -0.994515 0.104595 0
    outer loop
      vertex 84.9672 -6.81187 -6
      vertex 85 -6.5 -1.3
      vertex 85 -6.5 -6
    endloop
  endfacet
  facet normal -0.994515 0.104595 0
    outer loop
      vertex 85 -6.5 -1.3
      vertex 84.9672 -6.81187 -6
      vertex 84.9672 -6.81187 -1.3
    endloop
  endfacet
  facet normal -0.866021 0.500008 0
    outer loop
      vertex 84.7135 -7.38168 -6
      vertex 84.8703 -7.1101 -1.3
      vertex 84.8703 -7.1101 -6
    endloop
  endfacet
  facet normal -0.866021 0.500008 0
    outer loop
      vertex 84.8703 -7.1101 -1.3
      vertex 84.7135 -7.38168 -6
      vertex 84.7135 -7.38168 -1.3
    endloop
  endfacet
  facet normal 0.743193 0.669077 0
    outer loop
      vertex 82.4963 -7.61472 -1.3
      vertex 82.2865 -7.38168 -6
      vertex 82.2865 -7.38168 -1.3
    endloop
  endfacet
  facet normal 0.743193 0.669077 0
    outer loop
      vertex 82.2865 -7.38168 -6
      vertex 82.4963 -7.61472 -1.3
      vertex 82.4963 -7.61472 -6
    endloop
  endfacet
  facet normal 0 1 -0
    outer loop
      vertex 83.6568 -7.99178 -6
      vertex 83.3432 -7.99178 -1.3
      vertex 83.6568 -7.99178 -1.3
    endloop
  endfacet
  facet normal 0 1 0
    outer loop
      vertex 83.3432 -7.99178 -1.3
      vertex 83.6568 -7.99178 -6
      vertex 83.3432 -7.99178 -6
    endloop
  endfacet
  facet normal 0.994515 0.104595 0
    outer loop
      vertex 82.0328 -6.81187 -1.3
      vertex 82 -6.5 -6
      vertex 82 -6.5 -1.3
    endloop
  endfacet
  facet normal 0.994515 0.104595 0
    outer loop
      vertex 82 -6.5 -6
      vertex 82.0328 -6.81187 -1.3
      vertex 82.0328 -6.81187 -6
    endloop
  endfacet
  facet normal 0.406715 -0.913555 0
    outer loop
      vertex 82.75 -5.20096 -6
      vertex 83.0365 -5.07341 -1.3
      vertex 82.75 -5.20096 -1.3
    endloop
  endfacet
  facet normal 0.406715 -0.913555 0
    outer loop
      vertex 83.0365 -5.07341 -1.3
      vertex 82.75 -5.20096 -6
      vertex 83.0365 -5.07341 -6
    endloop
  endfacet
  facet normal 0.406689 0.913567 -0
    outer loop
      vertex 83.0365 -7.92658 -6
      vertex 82.75 -7.79904 -1.3
      vertex 83.0365 -7.92658 -1.3
    endloop
  endfacet
  facet normal 0.406689 0.913567 0
    outer loop
      vertex 82.75 -7.79904 -1.3
      vertex 83.0365 -7.92658 -6
      vertex 82.75 -7.79904 -6
    endloop
  endfacet
  facet normal 0.587777 -0.809023 0
    outer loop
      vertex 82.4963 -5.38528 -6
      vertex 82.75 -5.20096 -1.3
      vertex 82.4963 -5.38528 -1.3
    endloop
  endfacet
  facet normal 0.587777 -0.809023 0
    outer loop
      vertex 82.75 -5.20096 -1.3
      vertex 82.4963 -5.38528 -6
      vertex 82.75 -5.20096 -6
    endloop
  endfacet
  facet normal -0.406715 -0.913555 0
    outer loop
      vertex 83.9635 -5.07341 -6
      vertex 84.25 -5.20096 -1.3
      vertex 83.9635 -5.07341 -1.3
    endloop
  endfacet
  facet normal -0.406715 -0.913555 -0
    outer loop
      vertex 84.25 -5.20096 -1.3
      vertex 83.9635 -5.07341 -6
      vertex 84.25 -5.20096 -6
    endloop
  endfacet
  facet normal 0.866013 -0.500021 0
    outer loop
      vertex 82.1297 -5.88989 -1.3
      vertex 82.2865 -5.61832 -6
      vertex 82.2865 -5.61832 -1.3
    endloop
  endfacet
  facet normal 0.866013 -0.500021 0
    outer loop
      vertex 82.2865 -5.61832 -6
      vertex 82.1297 -5.88989 -1.3
      vertex 82.1297 -5.88989 -6
    endloop
  endfacet
  facet normal -0.406689 0.913567 0
    outer loop
      vertex 84.25 -7.79904 -6
      vertex 83.9635 -7.92658 -1.3
      vertex 84.25 -7.79904 -1.3
    endloop
  endfacet
  facet normal -0.406689 0.913567 0
    outer loop
      vertex 83.9635 -7.92658 -1.3
      vertex 84.25 -7.79904 -6
      vertex 83.9635 -7.92658 -6
    endloop
  endfacet
  facet normal -0.743193 0.669077 0
    outer loop
      vertex 84.5037 -7.61472 -6
      vertex 84.7135 -7.38168 -1.3
      vertex 84.7135 -7.38168 -6
    endloop
  endfacet
  facet normal -0.743193 0.669077 0
    outer loop
      vertex 84.7135 -7.38168 -1.3
      vertex 84.5037 -7.61472 -6
      vertex 84.5037 -7.61472 -1.3
    endloop
  endfacet
  facet normal -0.743193 -0.669077 0
    outer loop
      vertex 84.7135 -5.61832 -6
      vertex 84.5037 -5.38528 -1.3
      vertex 84.5037 -5.38528 -6
    endloop
  endfacet
  facet normal -0.743193 -0.669077 0
    outer loop
      vertex 84.5037 -5.38528 -1.3
      vertex 84.7135 -5.61832 -6
      vertex 84.7135 -5.61832 -1.3
    endloop
  endfacet
  facet normal 0.866021 0.500008 0
    outer loop
      vertex 82.2865 -7.38168 -1.3
      vertex 82.1297 -7.1101 -6
      vertex 82.1297 -7.1101 -1.3
    endloop
  endfacet
  facet normal 0.866021 0.500008 0
    outer loop
      vertex 82.1297 -7.1101 -6
      vertex 82.2865 -7.38168 -1.3
      vertex 82.2865 -7.38168 -6
    endloop
  endfacet
  facet normal -0.587777 -0.809023 0
    outer loop
      vertex 84.25 -5.20096 -6
      vertex 84.5037 -5.38528 -1.3
      vertex 84.25 -5.20096 -1.3
    endloop
  endfacet
  facet normal -0.587777 -0.809023 -0
    outer loop
      vertex 84.5037 -5.38528 -1.3
      vertex 84.25 -5.20096 -6
      vertex 84.5037 -5.38528 -6
    endloop
  endfacet
  facet normal -0.994515 -0.104595 0
    outer loop
      vertex 85 -6.5 -6
      vertex 84.9672 -6.18813 -1.3
      vertex 84.9672 -6.18813 -6
    endloop
  endfacet
  facet normal -0.994515 -0.104595 0
    outer loop
      vertex 84.9672 -6.18813 -1.3
      vertex 85 -6.5 -6
      vertex 85 -6.5 -1.3
    endloop
  endfacet
  facet normal -0.95106 -0.309005 0
    outer loop
      vertex 84.9672 -6.18813 -6
      vertex 84.8703 -5.88989 -1.3
      vertex 84.8703 -5.88989 -6
    endloop
  endfacet
  facet normal -0.95106 -0.309005 0
    outer loop
      vertex 84.8703 -5.88989 -1.3
      vertex 84.9672 -6.18813 -6
      vertex 84.9672 -6.18813 -1.3
    endloop
  endfacet
  facet normal -0.866013 -0.500021 0
    outer loop
      vertex 84.8703 -5.88989 -6
      vertex 84.7135 -5.61832 -1.3
      vertex 84.7135 -5.61832 -6
    endloop
  endfacet
  facet normal -0.866013 -0.500021 0
    outer loop
      vertex 84.7135 -5.61832 -1.3
      vertex 84.8703 -5.88989 -6
      vertex 84.8703 -5.88989 -1.3
    endloop
  endfacet
  facet normal 0.743193 -0.669077 0
    outer loop
      vertex 82.2865 -5.61832 -1.3
      vertex 82.4963 -5.38528 -6
      vertex 82.4963 -5.38528 -1.3
    endloop
  endfacet
  facet normal 0.743193 -0.669077 0
    outer loop
      vertex 82.4963 -5.38528 -6
      vertex 82.2865 -5.61832 -1.3
      vertex 82.2865 -5.61832 -6
    endloop
  endfacet
  facet normal -0.207939 0.978142 0
    outer loop
      vertex 83.9635 -7.92658 -6
      vertex 83.6568 -7.99178 -1.3
      vertex 83.9635 -7.92658 -1.3
    endloop
  endfacet
  facet normal -0.207939 0.978142 0
    outer loop
      vertex 83.6568 -7.99178 -1.3
      vertex 83.9635 -7.92658 -6
      vertex 83.6568 -7.99178 -6
    endloop
  endfacet
  facet normal -0.587777 0.809023 0
    outer loop
      vertex 84.5037 -7.61472 -6
      vertex 84.25 -7.79904 -1.3
      vertex 84.5037 -7.61472 -1.3
    endloop
  endfacet
  facet normal -0.587777 0.809023 0
    outer loop
      vertex 84.25 -7.79904 -1.3
      vertex 84.5037 -7.61472 -6
      vertex 84.25 -7.79904 -6
    endloop
  endfacet
  facet normal 0.994515 -0.104595 0
    outer loop
      vertex 82 -6.5 -1.3
      vertex 82.0328 -6.18813 -6
      vertex 82.0328 -6.18813 -1.3
    endloop
  endfacet
  facet normal 0.994515 -0.104595 0
    outer loop
      vertex 82.0328 -6.18813 -6
      vertex 82 -6.5 -1.3
      vertex 82 -6.5 -6
    endloop
  endfacet
  facet normal 0 -1 0
    outer loop
      vertex 83.3432 -5.00822 -6
      vertex 83.6568 -5.00822 -1.3
      vertex 83.3432 -5.00822 -1.3
    endloop
  endfacet
  facet normal 0 -1 -0
    outer loop
      vertex 83.6568 -5.00822 -1.3
      vertex 83.3432 -5.00822 -6
      vertex 83.6568 -5.00822 -6
    endloop
  endfacet
  facet normal 0.587777 0.809023 -0
    outer loop
      vertex 82.75 -7.79904 -6
      vertex 82.4963 -7.61472 -1.3
      vertex 82.75 -7.79904 -1.3
    endloop
  endfacet
  facet normal 0.587777 0.809023 0
    outer loop
      vertex 82.4963 -7.61472 -1.3
      vertex 82.75 -7.79904 -6
      vertex 82.4963 -7.61472 -6
    endloop
  endfacet
  facet normal 0.95106 -0.309005 0
    outer loop
      vertex 82.0328 -6.18813 -1.3
      vertex 82.1297 -5.88989 -6
      vertex 82.1297 -5.88989 -1.3
    endloop
  endfacet
  facet normal 0.95106 -0.309005 0
    outer loop
      vertex 82.1297 -5.88989 -6
      vertex 82.0328 -6.18813 -1.3
      vertex 82.0328 -6.18813 -6
    endloop
  endfacet
  facet normal 0.207939 0.978142 -0
    outer loop
      vertex 83.3432 -7.99178 -6
      vertex 83.0365 -7.92658 -1.3
      vertex 83.3432 -7.99178 -1.3
    endloop
  endfacet
  facet normal 0.207939 0.978142 0
    outer loop
      vertex 83.0365 -7.92658 -1.3
      vertex 83.3432 -7.99178 -6
      vertex 83.0365 -7.92658 -6
    endloop
  endfacet
  facet normal 0.207908 -0.978148 0
    outer loop
      vertex 83.0365 -5.07341 -6
      vertex 83.3432 -5.00822 -1.3
      vertex 83.0365 -5.07341 -1.3
    endloop
  endfacet
  facet normal 0.207908 -0.978148 0
    outer loop
      vertex 83.3432 -5.00822 -1.3
      vertex 83.0365 -5.07341 -6
      vertex 83.3432 -5.00822 -6
    endloop
  endfacet
  facet normal 0.951057 0.309015 0
    outer loop
      vertex 82.1297 -7.1101 -1.3
      vertex 82.0328 -6.81187 -6
      vertex 82.0328 -6.81187 -1.3
    endloop
  endfacet
  facet normal 0.951057 0.309015 0
    outer loop
      vertex 82.0328 -6.81187 -6
      vertex 82.1297 -7.1101 -1.3
      vertex 82.1297 -7.1101 -6
    endloop
  endfacet
  facet normal -0.207939 -0.978142 0
    outer loop
      vertex 83.6568 -47.0082 -6
      vertex 83.9635 -47.0734 -1.3
      vertex 83.6568 -47.0082 -1.3
    endloop
  endfacet
  facet normal -0.207939 -0.978142 -0
    outer loop
      vertex 83.9635 -47.0734 -1.3
      vertex 83.6568 -47.0082 -6
      vertex 83.9635 -47.0734 -6
    endloop
  endfacet
  facet normal -0.951048 0.309043 0
    outer loop
      vertex 84.8703 -49.1101 -6
      vertex 84.9672 -48.8119 -1.3
      vertex 84.9672 -48.8119 -6
    endloop
  endfacet
  facet normal -0.951048 0.309043 0
    outer loop
      vertex 84.9672 -48.8119 -1.3
      vertex 84.8703 -49.1101 -6
      vertex 84.8703 -49.1101 -1.3
    endloop
  endfacet
  facet normal -0.994516 0.104585 0
    outer loop
      vertex 84.9672 -48.8119 -6
      vertex 85 -48.5 -1.3
      vertex 85 -48.5 -6
    endloop
  endfacet
  facet normal -0.994516 0.104585 0
    outer loop
      vertex 85 -48.5 -1.3
      vertex 84.9672 -48.8119 -6
      vertex 84.9672 -48.8119 -1.3
    endloop
  endfacet
  facet normal -0.866037 0.49998 0
    outer loop
      vertex 84.7135 -49.3817 -6
      vertex 84.8703 -49.1101 -1.3
      vertex 84.8703 -49.1101 -6
    endloop
  endfacet
  facet normal -0.866037 0.49998 0
    outer loop
      vertex 84.8703 -49.1101 -1.3
      vertex 84.7135 -49.3817 -6
      vertex 84.7135 -49.3817 -1.3
    endloop
  endfacet
  facet normal 0.743136 0.669141 0
    outer loop
      vertex 82.4963 -49.6147 -1.3
      vertex 82.2865 -49.3817 -6
      vertex 82.2865 -49.3817 -1.3
    endloop
  endfacet
  facet normal 0.743136 0.669141 0
    outer loop
      vertex 82.2865 -49.3817 -6
      vertex 82.4963 -49.6147 -1.3
      vertex 82.4963 -49.6147 -6
    endloop
  endfacet
  facet normal 0 1 -0
    outer loop
      vertex 83.6568 -49.9918 -6
      vertex 83.3432 -49.9918 -1.3
      vertex 83.6568 -49.9918 -1.3
    endloop
  endfacet
  facet normal 0 1 0
    outer loop
      vertex 83.3432 -49.9918 -1.3
      vertex 83.6568 -49.9918 -6
      vertex 83.3432 -49.9918 -6
    endloop
  endfacet
  facet normal 0.994516 0.104585 0
    outer loop
      vertex 82.0328 -48.8119 -1.3
      vertex 82 -48.5 -6
      vertex 82 -48.5 -1.3
    endloop
  endfacet
  facet normal 0.994516 0.104585 0
    outer loop
      vertex 82 -48.5 -6
      vertex 82.0328 -48.8119 -1.3
      vertex 82.0328 -48.8119 -6
    endloop
  endfacet
  facet normal 0.406848 -0.913496 0
    outer loop
      vertex 82.75 -47.201 -6
      vertex 83.0365 -47.0734 -1.3
      vertex 82.75 -47.201 -1.3
    endloop
  endfacet
  facet normal 0.406848 -0.913496 0
    outer loop
      vertex 83.0365 -47.0734 -1.3
      vertex 82.75 -47.201 -6
      vertex 83.0365 -47.0734 -6
    endloop
  endfacet
  facet normal 0.406848 0.913496 -0
    outer loop
      vertex 83.0365 -49.9266 -6
      vertex 82.75 -49.799 -1.3
      vertex 83.0365 -49.9266 -1.3
    endloop
  endfacet
  facet normal 0.406848 0.913496 0
    outer loop
      vertex 82.75 -49.799 -1.3
      vertex 83.0365 -49.9266 -6
      vertex 82.75 -49.799 -6
    endloop
  endfacet
  facet normal 0.587735 -0.809053 0
    outer loop
      vertex 82.4963 -47.3853 -6
      vertex 82.75 -47.201 -1.3
      vertex 82.4963 -47.3853 -1.3
    endloop
  endfacet
  facet normal 0.587735 -0.809053 0
    outer loop
      vertex 82.75 -47.201 -1.3
      vertex 82.4963 -47.3853 -6
      vertex 82.75 -47.201 -6
    endloop
  endfacet
  facet normal -0.406848 -0.913496 0
    outer loop
      vertex 83.9635 -47.0734 -6
      vertex 84.25 -47.201 -1.3
      vertex 83.9635 -47.0734 -1.3
    endloop
  endfacet
  facet normal -0.406848 -0.913496 -0
    outer loop
      vertex 84.25 -47.201 -1.3
      vertex 83.9635 -47.0734 -6
      vertex 84.25 -47.201 -6
    endloop
  endfacet
  facet normal -0.406848 0.913496 0
    outer loop
      vertex 84.25 -49.799 -6
      vertex 83.9635 -49.9266 -1.3
      vertex 84.25 -49.799 -1.3
    endloop
  endfacet
  facet normal -0.406848 0.913496 0
    outer loop
      vertex 83.9635 -49.9266 -1.3
      vertex 84.25 -49.799 -6
      vertex 83.9635 -49.9266 -6
    endloop
  endfacet
  facet normal -0.743136 0.669141 0
    outer loop
      vertex 84.5037 -49.6147 -6
      vertex 84.7135 -49.3817 -1.3
      vertex 84.7135 -49.3817 -6
    endloop
  endfacet
  facet normal -0.743136 0.669141 0
    outer loop
      vertex 84.7135 -49.3817 -1.3
      vertex 84.5037 -49.6147 -6
      vertex 84.5037 -49.6147 -1.3
    endloop
  endfacet
  facet normal -0.743136 -0.669141 0
    outer loop
      vertex 84.7135 -47.6183 -6
      vertex 84.5037 -47.3853 -1.3
      vertex 84.5037 -47.3853 -6
    endloop
  endfacet
  facet normal -0.743136 -0.669141 0
    outer loop
      vertex 84.5037 -47.3853 -1.3
      vertex 84.7135 -47.6183 -6
      vertex 84.7135 -47.6183 -1.3
    endloop
  endfacet
  facet normal 0.866037 0.49998 0
    outer loop
      vertex 82.2865 -49.3817 -1.3
      vertex 82.1297 -49.1101 -6
      vertex 82.1297 -49.1101 -1.3
    endloop
  endfacet
  facet normal 0.866037 0.49998 0
    outer loop
      vertex 82.1297 -49.1101 -6
      vertex 82.2865 -49.3817 -1.3
      vertex 82.2865 -49.3817 -6
    endloop
  endfacet
  facet normal -0.587735 -0.809053 0
    outer loop
      vertex 84.25 -47.201 -6
      vertex 84.5037 -47.3853 -1.3
      vertex 84.25 -47.201 -1.3
    endloop
  endfacet
  facet normal -0.587735 -0.809053 -0
    outer loop
      vertex 84.5037 -47.3853 -1.3
      vertex 84.25 -47.201 -6
      vertex 84.5037 -47.3853 -6
    endloop
  endfacet
  facet normal -0.994516 -0.104585 0
    outer loop
      vertex 85 -48.5 -6
      vertex 84.9672 -48.1881 -1.3
      vertex 84.9672 -48.1881 -6
    endloop
  endfacet
  facet normal -0.994516 -0.104585 0
    outer loop
      vertex 84.9672 -48.1881 -1.3
      vertex 85 -48.5 -6
      vertex 85 -48.5 -1.3
    endloop
  endfacet
  facet normal -0.951048 -0.309043 0
    outer loop
      vertex 84.9672 -48.1881 -6
      vertex 84.8703 -47.8899 -1.3
      vertex 84.8703 -47.8899 -6
    endloop
  endfacet
  facet normal -0.951048 -0.309043 0
    outer loop
      vertex 84.8703 -47.8899 -1.3
      vertex 84.9672 -48.1881 -6
      vertex 84.9672 -48.1881 -1.3
    endloop
  endfacet
  facet normal -0.866037 -0.49998 0
    outer loop
      vertex 84.8703 -47.8899 -6
      vertex 84.7135 -47.6183 -1.3
      vertex 84.7135 -47.6183 -6
    endloop
  endfacet
  facet normal -0.866037 -0.49998 0
    outer loop
      vertex 84.7135 -47.6183 -1.3
      vertex 84.8703 -47.8899 -6
      vertex 84.8703 -47.8899 -1.3
    endloop
  endfacet
  facet normal 0.743136 -0.669141 0
    outer loop
      vertex 82.2865 -47.6183 -1.3
      vertex 82.4963 -47.3853 -6
      vertex 82.4963 -47.3853 -1.3
    endloop
  endfacet
  facet normal 0.743136 -0.669141 0
    outer loop
      vertex 82.4963 -47.3853 -6
      vertex 82.2865 -47.6183 -1.3
      vertex 82.2865 -47.6183 -6
    endloop
  endfacet
  facet normal -0.207939 0.978142 0
    outer loop
      vertex 83.9635 -49.9266 -6
      vertex 83.6568 -49.9918 -1.3
      vertex 83.9635 -49.9266 -1.3
    endloop
  endfacet
  facet normal -0.207939 0.978142 0
    outer loop
      vertex 83.6568 -49.9918 -1.3
      vertex 83.9635 -49.9266 -6
      vertex 83.6568 -49.9918 -6
    endloop
  endfacet
  facet normal -0.587735 0.809053 0
    outer loop
      vertex 84.5037 -49.6147 -6
      vertex 84.25 -49.799 -1.3
      vertex 84.5037 -49.6147 -1.3
    endloop
  endfacet
  facet normal -0.587735 0.809053 0
    outer loop
      vertex 84.25 -49.799 -1.3
      vertex 84.5037 -49.6147 -6
      vertex 84.25 -49.799 -6
    endloop
  endfacet
  facet normal 0.994516 -0.104585 0
    outer loop
      vertex 82 -48.5 -1.3
      vertex 82.0328 -48.1881 -6
      vertex 82.0328 -48.1881 -1.3
    endloop
  endfacet
  facet normal 0.994516 -0.104585 0
    outer loop
      vertex 82.0328 -48.1881 -6
      vertex 82 -48.5 -1.3
      vertex 82 -48.5 -6
    endloop
  endfacet
  facet normal 0 -1 0
    outer loop
      vertex 83.3432 -47.0082 -6
      vertex 83.6568 -47.0082 -1.3
      vertex 83.3432 -47.0082 -1.3
    endloop
  endfacet
  facet normal 0 -1 -0
    outer loop
      vertex 83.6568 -47.0082 -1.3
      vertex 83.3432 -47.0082 -6
      vertex 83.6568 -47.0082 -6
    endloop
  endfacet
  facet normal 0.587735 0.809053 -0
    outer loop
      vertex 82.75 -49.799 -6
      vertex 82.4963 -49.6147 -1.3
      vertex 82.75 -49.799 -1.3
    endloop
  endfacet
  facet normal 0.587735 0.809053 0
    outer loop
      vertex 82.4963 -49.6147 -1.3
      vertex 82.75 -49.799 -6
      vertex 82.4963 -49.6147 -6
    endloop
  endfacet
  facet normal 0.951048 -0.309043 0
    outer loop
      vertex 82.0328 -48.1881 -1.3
      vertex 82.1297 -47.8899 -6
      vertex 82.1297 -47.8899 -1.3
    endloop
  endfacet
  facet normal 0.951048 -0.309043 0
    outer loop
      vertex 82.1297 -47.8899 -6
      vertex 82.0328 -48.1881 -1.3
      vertex 82.0328 -48.1881 -6
    endloop
  endfacet
  facet normal 0.207939 0.978142 -0
    outer loop
      vertex 83.3432 -49.9918 -6
      vertex 83.0365 -49.9266 -1.3
      vertex 83.3432 -49.9918 -1.3
    endloop
  endfacet
  facet normal 0.207939 0.978142 0
    outer loop
      vertex 83.0365 -49.9266 -1.3
      vertex 83.3432 -49.9918 -6
      vertex 83.0365 -49.9266 -6
    endloop
  endfacet
  facet normal 0.866037 -0.49998 0
    outer loop
      vertex 82.1297 -47.8899 -1.3
      vertex 82.2865 -47.6183 -6
      vertex 82.2865 -47.6183 -1.3
    endloop
  endfacet
  facet normal 0.866037 -0.49998 0
    outer loop
      vertex 82.2865 -47.6183 -6
      vertex 82.1297 -47.8899 -1.3
      vertex 82.1297 -47.8899 -6
    endloop
  endfacet
  facet normal 0.951048 0.309043 0
    outer loop
      vertex 82.1297 -49.1101 -1.3
      vertex 82.0328 -48.8119 -6
      vertex 82.0328 -48.8119 -1.3
    endloop
  endfacet
  facet normal 0.951048 0.309043 0
    outer loop
      vertex 82.0328 -48.8119 -6
      vertex 82.1297 -49.1101 -1.3
      vertex 82.1297 -49.1101 -6
    endloop
  endfacet
  facet normal 0.207939 -0.978142 0
    outer loop
      vertex 83.0365 -47.0734 -6
      vertex 83.3432 -47.0082 -1.3
      vertex 83.0365 -47.0734 -1.3
    endloop
  endfacet
  facet normal 0.207939 -0.978142 0
    outer loop
      vertex 83.3432 -47.0082 -1.3
      vertex 83.0365 -47.0734 -6
      vertex 83.3432 -47.0082 -6
    endloop
  endfacet
  facet normal 1 -0 0
    outer loop
      vertex 90 -55 0
      vertex 90 0 -6
      vertex 90 0 0
    endloop
  endfacet
  facet normal 1 0 0
    outer loop
      vertex 90 0 -6
      vertex 90 -55 0
      vertex 90 -55 -6
    endloop
  endfacet
  facet normal 0 0 -1
    outer loop
      vertex 6.71352 -47.6183 -6
      vertex 15 -50.5 -6
      vertex 6.87032 -47.8899 -6
    endloop
  endfacet
  facet normal 0 0 -1
    outer loop
      vertex 15 -4.5 -6
      vertex 6.96722 -6.81187 -6
      vertex 7 -6.5 -6
    endloop
  endfacet
  facet normal 0 0 -1
    outer loop
      vertex 6.5037 -47.3853 -6
      vertex 15 -50.5 -6
      vertex 6.71352 -47.6183 -6
    endloop
  endfacet
  facet normal 0 0 -1
    outer loop
      vertex 15 -4.5 -6
      vertex 6.87032 -7.1101 -6
      vertex 6.96722 -6.81187 -6
    endloop
  endfacet
  facet normal 0 0 -1
    outer loop
      vertex 6.25 -47.201 -6
      vertex 15 -50.5 -6
      vertex 6.5037 -47.3853 -6
    endloop
  endfacet
  facet normal 0 0 -1
    outer loop
      vertex 15 -4.5 -6
      vertex 6.71352 -7.38168 -6
      vertex 6.87032 -7.1101 -6
    endloop
  endfacet
  facet normal 0 0 -1
    outer loop
      vertex 15 -50.5 -6
      vertex 6.25 -47.201 -6
      vertex 15 -4.5 -6
    endloop
  endfacet
  facet normal 0 0 -1
    outer loop
      vertex 15 -4.5 -6
      vertex 6.5037 -7.61472 -6
      vertex 6.71352 -7.38168 -6
    endloop
  endfacet
  facet normal 0 0 -1
    outer loop
      vertex 6.25 -7.79904 -6
      vertex 15 -4.5 -6
      vertex 6.25 -47.201 -6
    endloop
  endfacet
  facet normal 0 0 -1
    outer loop
      vertex 15 -4.5 -6
      vertex 6.25 -7.79904 -6
      vertex 6.5037 -7.61472 -6
    endloop
  endfacet
  facet normal 0 0 -1
    outer loop
      vertex 5.96352 -47.0734 -6
      vertex 6.25 -7.79904 -6
      vertex 6.25 -47.201 -6
    endloop
  endfacet
  facet normal 0 0 -1
    outer loop
      vertex 5.96352 -47.0734 -6
      vertex 5.96352 -7.92658 -6
      vertex 6.25 -7.79904 -6
    endloop
  endfacet
  facet normal 0 0 -1
    outer loop
      vertex 5.65679 -47.0082 -6
      vertex 5.96352 -7.92658 -6
      vertex 5.96352 -47.0734 -6
    endloop
  endfacet
  facet normal 0 0 -1
    outer loop
      vertex 5.65679 -47.0082 -6
      vertex 5.65679 -7.99178 -6
      vertex 5.96352 -7.92658 -6
    endloop
  endfacet
  facet normal 0 0 -1
    outer loop
      vertex 5.34321 -47.0082 -6
      vertex 5.65679 -7.99178 -6
      vertex 5.65679 -47.0082 -6
    endloop
  endfacet
  facet normal 0 0 -1
    outer loop
      vertex 5.34321 -47.0082 -6
      vertex 5.34321 -7.99178 -6
      vertex 5.65679 -7.99178 -6
    endloop
  endfacet
  facet normal 0 0 -1
    outer loop
      vertex 5.03647 -47.0734 -6
      vertex 5.34321 -7.99178 -6
      vertex 5.34321 -47.0082 -6
    endloop
  endfacet
  facet normal 0 0 -1
    outer loop
      vertex 5.03647 -47.0734 -6
      vertex 5.03647 -7.92658 -6
      vertex 5.34321 -7.99178 -6
    endloop
  endfacet
  facet normal 0 0 -1
    outer loop
      vertex 4.75 -47.201 -6
      vertex 5.03647 -7.92658 -6
      vertex 5.03647 -47.0734 -6
    endloop
  endfacet
  facet normal 0 0 -1
    outer loop
      vertex 4.75 -47.201 -6
      vertex 4.75 -7.79904 -6
      vertex 5.03647 -7.92658 -6
    endloop
  endfacet
  facet normal 0 0 -1
    outer loop
      vertex 4.4963 -47.3853 -6
      vertex 4.75 -7.79904 -6
      vertex 4.75 -47.201 -6
    endloop
  endfacet
  facet normal 0 0 -1
    outer loop
      vertex 4.4963 -47.3853 -6
      vertex 4.4963 -7.61472 -6
      vertex 4.75 -7.79904 -6
    endloop
  endfacet
  facet normal 0 0 -1
    outer loop
      vertex 4.28647 -47.6183 -6
      vertex 4.4963 -7.61472 -6
      vertex 4.4963 -47.3853 -6
    endloop
  endfacet
  facet normal 0 0 -1
    outer loop
      vertex 4.28647 -47.6183 -6
      vertex 4.28647 -7.38168 -6
      vertex 4.4963 -7.61472 -6
    endloop
  endfacet
  facet normal 0 0 -1
    outer loop
      vertex 4.12968 -47.8899 -6
      vertex 4.28647 -7.38168 -6
      vertex 4.28647 -47.6183 -6
    endloop
  endfacet
  facet normal 0 0 -1
    outer loop
      vertex 4.12968 -47.8899 -6
      vertex 4.12968 -7.1101 -6
      vertex 4.28647 -7.38168 -6
    endloop
  endfacet
  facet normal 0 0 -1
    outer loop
      vertex 0 -55 -6
      vertex 4.12968 -47.8899 -6
      vertex 4.03278 -48.1881 -6
    endloop
  endfacet
  facet normal -0 0 -1
    outer loop
      vertex 4.12968 -47.8899 -6
      vertex 0 -55 -6
      vertex 4.12968 -7.1101 -6
    endloop
  endfacet
  facet normal 0 0 -1
    outer loop
      vertex 0 -55 -6
      vertex 4.03278 -48.1881 -6
      vertex 4 -48.5 -6
    endloop
  endfacet
  facet normal 0 0 -1
    outer loop
      vertex 0 0 -6
      vertex 4.12968 -7.1101 -6
      vertex 0 -55 -6
    endloop
  endfacet
  facet normal 0 0 -1
    outer loop
      vertex 90 -55 -6
      vertex 84.8703 -47.8899 -6
      vertex 90 0 -6
    endloop
  endfacet
  facet normal 0 0 -1
    outer loop
      vertex 90 0 -6
      vertex 84.9672 -6.81187 -6
      vertex 85 -6.5 -6
    endloop
  endfacet
  facet normal 0 0 -1
    outer loop
      vertex 84.8703 -7.1101 -6
      vertex 90 0 -6
      vertex 84.8703 -47.8899 -6
    endloop
  endfacet
  facet normal 0 0 -1
    outer loop
      vertex 90 0 -6
      vertex 84.8703 -7.1101 -6
      vertex 84.9672 -6.81187 -6
    endloop
  endfacet
  facet normal 0 0 -1
    outer loop
      vertex 84.7135 -47.6183 -6
      vertex 84.8703 -7.1101 -6
      vertex 84.8703 -47.8899 -6
    endloop
  endfacet
  facet normal 0 0 -1
    outer loop
      vertex 84.7135 -47.6183 -6
      vertex 84.7135 -7.38168 -6
      vertex 84.8703 -7.1101 -6
    endloop
  endfacet
  facet normal 0 0 -1
    outer loop
      vertex 84.5037 -47.3853 -6
      vertex 84.7135 -7.38168 -6
      vertex 84.7135 -47.6183 -6
    endloop
  endfacet
  facet normal 0 0 -1
    outer loop
      vertex 84.5037 -47.3853 -6
      vertex 84.5037 -7.61472 -6
      vertex 84.7135 -7.38168 -6
    endloop
  endfacet
  facet normal 0 0 -1
    outer loop
      vertex 84.25 -47.201 -6
      vertex 84.5037 -7.61472 -6
      vertex 84.5037 -47.3853 -6
    endloop
  endfacet
  facet normal 0 0 -1
    outer loop
      vertex 84.25 -47.201 -6
      vertex 84.25 -7.79904 -6
      vertex 84.5037 -7.61472 -6
    endloop
  endfacet
  facet normal 0 0 -1
    outer loop
      vertex 83.9635 -47.0734 -6
      vertex 84.25 -7.79904 -6
      vertex 84.25 -47.201 -6
    endloop
  endfacet
  facet normal 0 0 -1
    outer loop
      vertex 83.9635 -47.0734 -6
      vertex 83.9635 -7.92658 -6
      vertex 84.25 -7.79904 -6
    endloop
  endfacet
  facet normal 0 0 -1
    outer loop
      vertex 83.6568 -47.0082 -6
      vertex 83.9635 -7.92658 -6
      vertex 83.9635 -47.0734 -6
    endloop
  endfacet
  facet normal 0 0 -1
    outer loop
      vertex 83.6568 -47.0082 -6
      vertex 83.6568 -7.99178 -6
      vertex 83.9635 -7.92658 -6
    endloop
  endfacet
  facet normal 0 0 -1
    outer loop
      vertex 83.3432 -47.0082 -6
      vertex 83.6568 -7.99178 -6
      vertex 83.6568 -47.0082 -6
    endloop
  endfacet
  facet normal 0 0 -1
    outer loop
      vertex 83.3432 -47.0082 -6
      vertex 83.3432 -7.99178 -6
      vertex 83.6568 -7.99178 -6
    endloop
  endfacet
  facet normal 0 0 -1
    outer loop
      vertex 83.0365 -47.0734 -6
      vertex 83.3432 -7.99178 -6
      vertex 83.3432 -47.0082 -6
    endloop
  endfacet
  facet normal 0 0 -1
    outer loop
      vertex 83.0365 -47.0734 -6
      vertex 83.0365 -7.92658 -6
      vertex 83.3432 -7.99178 -6
    endloop
  endfacet
  facet normal 0 0 -1
    outer loop
      vertex 82.75 -47.201 -6
      vertex 83.0365 -7.92658 -6
      vertex 83.0365 -47.0734 -6
    endloop
  endfacet
  facet normal 0 0 -1
    outer loop
      vertex 82.75 -47.201 -6
      vertex 82.75 -7.79904 -6
      vertex 83.0365 -7.92658 -6
    endloop
  endfacet
  facet normal 0 0 -1
    outer loop
      vertex 82.4963 -47.3853 -6
      vertex 82.75 -7.79904 -6
      vertex 82.75 -47.201 -6
    endloop
  endfacet
  facet normal 0 0 -1
    outer loop
      vertex 82.4963 -47.3853 -6
      vertex 82.4963 -7.61472 -6
      vertex 82.75 -7.79904 -6
    endloop
  endfacet
  facet normal 0 0 -1
    outer loop
      vertex 79 -50.5 -6
      vertex 82.4963 -47.3853 -6
      vertex 82.2865 -47.6183 -6
    endloop
  endfacet
  facet normal -0 0 -1
    outer loop
      vertex 82.4963 -47.3853 -6
      vertex 79 -50.5 -6
      vertex 82.4963 -7.61472 -6
    endloop
  endfacet
  facet normal 0 0 -1
    outer loop
      vertex 79 -50.5 -6
      vertex 82.2865 -47.6183 -6
      vertex 82.1297 -47.8899 -6
    endloop
  endfacet
  facet normal 0 0 -1
    outer loop
      vertex 79 -4.5 -6
      vertex 82.4963 -7.61472 -6
      vertex 79 -50.5 -6
    endloop
  endfacet
  facet normal 0 0 -1
    outer loop
      vertex 79 -50.5 -6
      vertex 82.1297 -47.8899 -6
      vertex 82.0328 -48.1881 -6
    endloop
  endfacet
  facet normal 0 0 -1
    outer loop
      vertex 82.4963 -7.61472 -6
      vertex 79 -4.5 -6
      vertex 82.2865 -7.38168 -6
    endloop
  endfacet
  facet normal 0 0 -1
    outer loop
      vertex 79 -50.5 -6
      vertex 82.0328 -48.1881 -6
      vertex 82 -48.5 -6
    endloop
  endfacet
  facet normal 0 0 -1
    outer loop
      vertex 82.2865 -7.38168 -6
      vertex 79 -4.5 -6
      vertex 82.1297 -7.1101 -6
    endloop
  endfacet
  facet normal 0 0 -1
    outer loop
      vertex 84.9672 -48.1881 -6
      vertex 90 -55 -6
      vertex 85 -48.5 -6
    endloop
  endfacet
  facet normal 0 0 -1
    outer loop
      vertex 90 -55 -6
      vertex 84.9672 -48.8119 -6
      vertex 85 -48.5 -6
    endloop
  endfacet
  facet normal 0 0 -1
    outer loop
      vertex 90 -55 -6
      vertex 84.8703 -49.1101 -6
      vertex 84.9672 -48.8119 -6
    endloop
  endfacet
  facet normal 0 0 -1
    outer loop
      vertex 90 -55 -6
      vertex 84.7135 -49.3817 -6
      vertex 84.8703 -49.1101 -6
    endloop
  endfacet
  facet normal 0 0 -1
    outer loop
      vertex 90 -55 -6
      vertex 84.5037 -49.6147 -6
      vertex 84.7135 -49.3817 -6
    endloop
  endfacet
  facet normal 0 0 -1
    outer loop
      vertex 90 -55 -6
      vertex 84.25 -49.799 -6
      vertex 84.5037 -49.6147 -6
    endloop
  endfacet
  facet normal 0 0 -1
    outer loop
      vertex 90 -55 -6
      vertex 83.9635 -49.9266 -6
      vertex 84.25 -49.799 -6
    endloop
  endfacet
  facet normal 0 0 -1
    outer loop
      vertex 90 -55 -6
      vertex 83.6568 -49.9918 -6
      vertex 83.9635 -49.9266 -6
    endloop
  endfacet
  facet normal 0 0 -1
    outer loop
      vertex 90 -55 -6
      vertex 83.3432 -49.9918 -6
      vertex 83.6568 -49.9918 -6
    endloop
  endfacet
  facet normal 0 0 -1
    outer loop
      vertex 79 -50.5 -6
      vertex 83.3432 -49.9918 -6
      vertex 90 -55 -6
    endloop
  endfacet
  facet normal -0 0 -1
    outer loop
      vertex 83.3432 -49.9918 -6
      vertex 79 -50.5 -6
      vertex 83.0365 -49.9266 -6
    endloop
  endfacet
  facet normal 0 0 -1
    outer loop
      vertex 82.1297 -7.1101 -6
      vertex 79 -4.5 -6
      vertex 82.0328 -6.81187 -6
    endloop
  endfacet
  facet normal -0 0 -1
    outer loop
      vertex 82.0328 -48.8119 -6
      vertex 79 -50.5 -6
      vertex 82 -48.5 -6
    endloop
  endfacet
  facet normal -0 0 -1
    outer loop
      vertex 82.1297 -49.1101 -6
      vertex 79 -50.5 -6
      vertex 82.0328 -48.8119 -6
    endloop
  endfacet
  facet normal -0 0 -1
    outer loop
      vertex 82.2865 -49.3817 -6
      vertex 79 -50.5 -6
      vertex 82.1297 -49.1101 -6
    endloop
  endfacet
  facet normal -0 0 -1
    outer loop
      vertex 82.4963 -49.6147 -6
      vertex 79 -50.5 -6
      vertex 82.2865 -49.3817 -6
    endloop
  endfacet
  facet normal -0 0 -1
    outer loop
      vertex 82.75 -49.799 -6
      vertex 79 -50.5 -6
      vertex 82.4963 -49.6147 -6
    endloop
  endfacet
  facet normal -0 0 -1
    outer loop
      vertex 83.0365 -49.9266 -6
      vertex 79 -50.5 -6
      vertex 82.75 -49.799 -6
    endloop
  endfacet
  facet normal 0 0 -1
    outer loop
      vertex 90 -55 -6
      vertex 15 -50.5 -6
      vertex 79 -50.5 -6
    endloop
  endfacet
  facet normal 0 0 -1
    outer loop
      vertex 6.96722 -48.1881 -6
      vertex 15 -50.5 -6
      vertex 7 -48.5 -6
    endloop
  endfacet
  facet normal 0 0 -1
    outer loop
      vertex 15 -50.5 -6
      vertex 6.96722 -48.8119 -6
      vertex 7 -48.5 -6
    endloop
  endfacet
  facet normal 0 0 -1
    outer loop
      vertex 15 -50.5 -6
      vertex 6.87032 -49.1101 -6
      vertex 6.96722 -48.8119 -6
    endloop
  endfacet
  facet normal 0 0 -1
    outer loop
      vertex 15 -50.5 -6
      vertex 6.71352 -49.3817 -6
      vertex 6.87032 -49.1101 -6
    endloop
  endfacet
  facet normal 0 0 -1
    outer loop
      vertex 15 -50.5 -6
      vertex 6.5037 -49.6147 -6
      vertex 6.71352 -49.3817 -6
    endloop
  endfacet
  facet normal 0 0 -1
    outer loop
      vertex 15 -50.5 -6
      vertex 6.25 -49.799 -6
      vertex 6.5037 -49.6147 -6
    endloop
  endfacet
  facet normal 0 0 -1
    outer loop
      vertex 15 -50.5 -6
      vertex 5.96352 -49.9266 -6
      vertex 6.25 -49.799 -6
    endloop
  endfacet
  facet normal 0 0 -1
    outer loop
      vertex 0 -55 -6
      vertex 5.96352 -49.9266 -6
      vertex 15 -50.5 -6
    endloop
  endfacet
  facet normal 0 0 -1
    outer loop
      vertex 0 -55 -6
      vertex 15 -50.5 -6
      vertex 90 -55 -6
    endloop
  endfacet
  facet normal 0 0 -1
    outer loop
      vertex 5.96352 -49.9266 -6
      vertex 0 -55 -6
      vertex 5.65679 -49.9918 -6
    endloop
  endfacet
  facet normal 0 0 -1
    outer loop
      vertex 4.12968 -7.1101 -6
      vertex 0 0 -6
      vertex 4.03278 -6.81187 -6
    endloop
  endfacet
  facet normal -0 0 -1
    outer loop
      vertex 4.03278 -48.8119 -6
      vertex 0 -55 -6
      vertex 4 -48.5 -6
    endloop
  endfacet
  facet normal -0 0 -1
    outer loop
      vertex 4.12968 -49.1101 -6
      vertex 0 -55 -6
      vertex 4.03278 -48.8119 -6
    endloop
  endfacet
  facet normal -0 0 -1
    outer loop
      vertex 4.28647 -49.3817 -6
      vertex 0 -55 -6
      vertex 4.12968 -49.1101 -6
    endloop
  endfacet
  facet normal -0 0 -1
    outer loop
      vertex 4.4963 -49.6147 -6
      vertex 0 -55 -6
      vertex 4.28647 -49.3817 -6
    endloop
  endfacet
  facet normal -0 0 -1
    outer loop
      vertex 4.75 -49.799 -6
      vertex 0 -55 -6
      vertex 4.4963 -49.6147 -6
    endloop
  endfacet
  facet normal -0 0 -1
    outer loop
      vertex 5.03647 -49.9266 -6
      vertex 0 -55 -6
      vertex 4.75 -49.799 -6
    endloop
  endfacet
  facet normal -0 0 -1
    outer loop
      vertex 5.34321 -49.9918 -6
      vertex 0 -55 -6
      vertex 5.03647 -49.9266 -6
    endloop
  endfacet
  facet normal -0 0 -1
    outer loop
      vertex 5.65679 -49.9918 -6
      vertex 0 -55 -6
      vertex 5.34321 -49.9918 -6
    endloop
  endfacet
  facet normal 0 0 -1
    outer loop
      vertex 84.8703 -47.8899 -6
      vertex 90 -55 -6
      vertex 84.9672 -48.1881 -6
    endloop
  endfacet
  facet normal 0 0 -1
    outer loop
      vertex 84.9672 -6.18813 -6
      vertex 90 0 -6
      vertex 85 -6.5 -6
    endloop
  endfacet
  facet normal 0 0 -1
    outer loop
      vertex 84.8703 -5.88989 -6
      vertex 90 0 -6
      vertex 84.9672 -6.18813 -6
    endloop
  endfacet
  facet normal 0 0 -1
    outer loop
      vertex 84.7135 -5.61832 -6
      vertex 90 0 -6
      vertex 84.8703 -5.88989 -6
    endloop
  endfacet
  facet normal 0 0 -1
    outer loop
      vertex 84.5037 -5.38528 -6
      vertex 90 0 -6
      vertex 84.7135 -5.61832 -6
    endloop
  endfacet
  facet normal 0 0 -1
    outer loop
      vertex 84.25 -5.20096 -6
      vertex 90 0 -6
      vertex 84.5037 -5.38528 -6
    endloop
  endfacet
  facet normal 0 0 -1
    outer loop
      vertex 83.9635 -5.07341 -6
      vertex 90 0 -6
      vertex 84.25 -5.20096 -6
    endloop
  endfacet
  facet normal 0 0 -1
    outer loop
      vertex 83.6568 -5.00822 -6
      vertex 90 0 -6
      vertex 83.9635 -5.07341 -6
    endloop
  endfacet
  facet normal 0 0 -1
    outer loop
      vertex 83.3432 -5.00822 -6
      vertex 90 0 -6
      vertex 83.6568 -5.00822 -6
    endloop
  endfacet
  facet normal 0 0 -1
    outer loop
      vertex 79 -4.5 -6
      vertex 83.3432 -5.00822 -6
      vertex 83.0365 -5.07341 -6
    endloop
  endfacet
  facet normal 0 0 -1
    outer loop
      vertex 79 -4.5 -6
      vertex 83.0365 -5.07341 -6
      vertex 82.75 -5.20096 -6
    endloop
  endfacet
  facet normal 0 0 -1
    outer loop
      vertex 82.0328 -6.81187 -6
      vertex 79 -4.5 -6
      vertex 82 -6.5 -6
    endloop
  endfacet
  facet normal 0 0 -1
    outer loop
      vertex 79 -4.5 -6
      vertex 82.0328 -6.18813 -6
      vertex 82 -6.5 -6
    endloop
  endfacet
  facet normal 0 0 -1
    outer loop
      vertex 79 -4.5 -6
      vertex 82.1297 -5.88989 -6
      vertex 82.0328 -6.18813 -6
    endloop
  endfacet
  facet normal 0 0 -1
    outer loop
      vertex 79 -4.5 -6
      vertex 82.2865 -5.61832 -6
      vertex 82.1297 -5.88989 -6
    endloop
  endfacet
  facet normal 0 0 -1
    outer loop
      vertex 79 -4.5 -6
      vertex 82.4963 -5.38528 -6
      vertex 82.2865 -5.61832 -6
    endloop
  endfacet
  facet normal 0 0 -1
    outer loop
      vertex 79 -4.5 -6
      vertex 82.75 -5.20096 -6
      vertex 82.4963 -5.38528 -6
    endloop
  endfacet
  facet normal 0 0 -1
    outer loop
      vertex 83.3432 -5.00822 -6
      vertex 79 -4.5 -6
      vertex 90 0 -6
    endloop
  endfacet
  facet normal 0 0 -1
    outer loop
      vertex 15 -4.5 -6
      vertex 90 0 -6
      vertex 79 -4.5 -6
    endloop
  endfacet
  facet normal 0 0 -1
    outer loop
      vertex 6.87032 -47.8899 -6
      vertex 15 -50.5 -6
      vertex 6.96722 -48.1881 -6
    endloop
  endfacet
  facet normal 0 0 -1
    outer loop
      vertex 6.96722 -6.18813 -6
      vertex 15 -4.5 -6
      vertex 7 -6.5 -6
    endloop
  endfacet
  facet normal 0 0 -1
    outer loop
      vertex 6.87032 -5.88989 -6
      vertex 15 -4.5 -6
      vertex 6.96722 -6.18813 -6
    endloop
  endfacet
  facet normal 0 0 -1
    outer loop
      vertex 6.71352 -5.61832 -6
      vertex 15 -4.5 -6
      vertex 6.87032 -5.88989 -6
    endloop
  endfacet
  facet normal 0 0 -1
    outer loop
      vertex 6.5037 -5.38528 -6
      vertex 15 -4.5 -6
      vertex 6.71352 -5.61832 -6
    endloop
  endfacet
  facet normal 0 0 -1
    outer loop
      vertex 6.25 -5.20096 -6
      vertex 15 -4.5 -6
      vertex 6.5037 -5.38528 -6
    endloop
  endfacet
  facet normal 0 0 -1
    outer loop
      vertex 5.96352 -5.07341 -6
      vertex 15 -4.5 -6
      vertex 6.25 -5.20096 -6
    endloop
  endfacet
  facet normal 0 0 -1
    outer loop
      vertex 0 0 -6
      vertex 5.96352 -5.07341 -6
      vertex 5.65679 -5.00822 -6
    endloop
  endfacet
  facet normal 0 0 -1
    outer loop
      vertex 5.96352 -5.07341 -6
      vertex 0 0 -6
      vertex 15 -4.5 -6
    endloop
  endfacet
  facet normal 0 0 -1
    outer loop
      vertex 0 0 -6
      vertex 5.65679 -5.00822 -6
      vertex 5.34321 -5.00822 -6
    endloop
  endfacet
  facet normal 0 0 -1
    outer loop
      vertex 15 -4.5 -6
      vertex 0 0 -6
      vertex 90 0 -6
    endloop
  endfacet
  facet normal 0 0 -1
    outer loop
      vertex 5.03647 -5.07341 -6
      vertex 0 0 -6
      vertex 5.34321 -5.00822 -6
    endloop
  endfacet
  facet normal 0 0 -1
    outer loop
      vertex 4.75 -5.20096 -6
      vertex 0 0 -6
      vertex 5.03647 -5.07341 -6
    endloop
  endfacet
  facet normal 0 0 -1
    outer loop
      vertex 4.4963 -5.38528 -6
      vertex 0 0 -6
      vertex 4.75 -5.20096 -6
    endloop
  endfacet
  facet normal 0 0 -1
    outer loop
      vertex 4.28647 -5.61832 -6
      vertex 0 0 -6
      vertex 4.4963 -5.38528 -6
    endloop
  endfacet
  facet normal 0 0 -1
    outer loop
      vertex 4.12968 -5.88989 -6
      vertex 0 0 -6
      vertex 4.28647 -5.61832 -6
    endloop
  endfacet
  facet normal 0 0 -1
    outer loop
      vertex 4.03278 -6.18813 -6
      vertex 0 0 -6
      vertex 4.12968 -5.88989 -6
    endloop
  endfacet
  facet normal 0 0 -1
    outer loop
      vertex 4 -6.5 -6
      vertex 0 0 -6
      vertex 4.03278 -6.18813 -6
    endloop
  endfacet
  facet normal 0 0 -1
    outer loop
      vertex 4.03278 -6.81187 -6
      vertex 0 0 -6
      vertex 4 -6.5 -6
    endloop
  endfacet
  facet normal 0 0 1
    outer loop
      vertex 90 0 0
      vertex 88 -2 0
      vertex 90 -55 0
    endloop
  endfacet
  facet normal -0 0 1
    outer loop
      vertex 0 0 0
      vertex 88 -2 0
      vertex 90 0 0
    endloop
  endfacet
  facet normal 0 0 1
    outer loop
      vertex 1 -2 0
      vertex 0 0 0
      vertex 1 -53 0
    endloop
  endfacet
  facet normal 0 0 1
    outer loop
      vertex 88 -2 0
      vertex 0 0 0
      vertex 1 -2 0
    endloop
  endfacet
  facet normal -0 0 1
    outer loop
      vertex 88 -53 0
      vertex 90 -55 0
      vertex 88 -2 0
    endloop
  endfacet
  facet normal 0 0 1
    outer loop
      vertex 0 -55 0
      vertex 88 -53 0
      vertex 1 -53 0
    endloop
  endfacet
  facet normal 0 0 1
    outer loop
      vertex 88 -53 0
      vertex 0 -55 0
      vertex 90 -55 0
    endloop
  endfacet
  facet normal 0 0 1
    outer loop
      vertex 0 -55 0
      vertex 1 -53 0
      vertex 0 0 0
    endloop
  endfacet
  facet normal -1 0 0
    outer loop
      vertex 0 -55 -6
      vertex 0 0 0
      vertex 0 0 -6
    endloop
  endfacet
  facet normal -1 -0 0
    outer loop
      vertex 0 0 0
      vertex 0 -55 -6
      vertex 0 -55 0
    endloop
  endfacet
  facet normal 0 -1 0
    outer loop
      vertex 0 -55 -6
      vertex 90 -55 0
      vertex 0 -55 0
    endloop
  endfacet
  facet normal 0 -1 -0
    outer loop
      vertex 90 -55 0
      vertex 0 -55 -6
      vertex 90 -55 -6
    endloop
  endfacet
  facet normal 0 1 -0
    outer loop
      vertex 90 0 -6
      vertex 0 0 0
      vertex 90 0 0
    endloop
  endfacet
  facet normal 0 1 0
    outer loop
      vertex 0 0 0
      vertex 90 0 -6
      vertex 0 0 -6
    endloop
  endfacet
endsolid OpenSCAD_Model
