EESchema Schematic File Version 4
EELAYER 30 0
EELAYER END
$Descr A4 11693 8268
encoding utf-8
Sheet 1 1
Title ""
Date ""
Rev ""
Comp ""
Comment1 ""
Comment2 ""
Comment3 ""
Comment4 ""
$EndDescr
$Comp
L esp32_poe_iso:ESP32_POE_ISO U1
U 1 1 5FDB682C
P 5200 3600
F 0 "U1" H 5350 4525 50  0000 C CNN
F 1 "ESP32_POE_ISO" H 5350 4434 50  0000 C CNN
F 2 "olimex_poe_esp:ESP32_POE_ISO" H 4950 3700 50  0001 C CNN
F 3 "" H 4950 3700 50  0001 C CNN
	1    5200 3600
	1    0    0    -1  
$EndComp
$Comp
L Connector:Conn_01x10_Male J1
U 1 1 5FDB892A
P 3550 3400
F 0 "J1" H 3658 3981 50  0000 C CNN
F 1 "Conn_01x10_Male" H 3658 3890 50  0000 C CNN
F 2 "Connector_PinHeader_2.54mm:PinHeader_1x10_P2.54mm_Vertical" H 3550 3400 50  0001 C CNN
F 3 "~" H 3550 3400 50  0001 C CNN
	1    3550 3400
	1    0    0    -1  
$EndComp
$Comp
L Connector:Conn_01x10_Male J2
U 1 1 5FDBA59F
P 7000 3550
F 0 "J2" H 6972 3524 50  0000 R CNN
F 1 "Conn_01x10_Male" H 6972 3433 50  0000 R CNN
F 2 "Connector_PinHeader_2.54mm:PinHeader_1x10_P2.54mm_Vertical" H 7000 3550 50  0001 C CNN
F 3 "~" H 7000 3550 50  0001 C CNN
	1    7000 3550
	-1   0    0    -1  
$EndComp
Wire Wire Line
	6800 2900 6800 3150
Wire Wire Line
	6250 3050 6600 3050
Wire Wire Line
	6600 3050 6600 3250
Wire Wire Line
	6600 3250 6800 3250
Wire Wire Line
	6250 3200 6550 3200
Wire Wire Line
	6550 3200 6550 3350
Wire Wire Line
	6550 3350 6800 3350
Wire Wire Line
	6250 3350 6500 3350
Wire Wire Line
	6500 3350 6500 3450
Wire Wire Line
	6500 3450 6800 3450
Wire Wire Line
	6250 3500 6650 3500
Wire Wire Line
	6650 3500 6650 3550
Wire Wire Line
	6650 3550 6800 3550
Wire Wire Line
	6250 3650 6800 3650
Wire Wire Line
	6250 3800 6600 3800
Wire Wire Line
	6600 3800 6600 3750
Wire Wire Line
	6600 3750 6800 3750
Wire Wire Line
	6800 3850 6650 3850
Wire Wire Line
	6650 3850 6650 3950
Wire Wire Line
	6650 3950 6250 3950
Wire Wire Line
	6800 3950 6700 3950
Wire Wire Line
	6700 3950 6700 4100
Wire Wire Line
	6700 4100 6250 4100
Wire Wire Line
	6800 4050 6800 4250
Wire Wire Line
	6800 4250 6250 4250
Wire Wire Line
	4450 2900 3750 2900
Wire Wire Line
	3750 2900 3750 3000
Wire Wire Line
	4450 3050 3900 3050
Wire Wire Line
	3900 3050 3900 3100
Wire Wire Line
	3900 3100 3750 3100
Wire Wire Line
	3750 3200 4450 3200
Wire Wire Line
	4450 3350 4350 3350
Wire Wire Line
	4350 3350 4350 3300
Wire Wire Line
	4350 3300 3750 3300
Wire Wire Line
	4450 3500 4250 3500
Wire Wire Line
	4250 3500 4250 3400
Wire Wire Line
	4250 3400 3750 3400
Wire Wire Line
	4450 3650 4350 3650
Wire Wire Line
	4350 3650 4350 3550
Wire Wire Line
	4350 3550 3750 3550
Wire Wire Line
	3750 3550 3750 3500
Wire Wire Line
	3750 3600 4250 3600
Wire Wire Line
	4250 3600 4250 3800
Wire Wire Line
	4250 3800 4450 3800
Wire Wire Line
	3750 3700 4200 3700
Wire Wire Line
	4200 3700 4200 3950
Wire Wire Line
	4200 3950 4450 3950
Wire Wire Line
	3750 3800 4100 3800
Wire Wire Line
	4100 3800 4100 4100
Wire Wire Line
	4100 4100 4450 4100
Wire Wire Line
	4450 4250 3900 4250
Wire Wire Line
	3900 4250 3900 3900
Wire Wire Line
	3900 3900 3750 3900
Wire Wire Line
	6250 2900 6800 2900
$EndSCHEMATC
